          16  2.922073690569960E-007
          32  3.057530799803013E-007
          64  3.234985342714936E-007
         128  3.592120871568719E-007
         256  4.392291884869337E-007
         512  4.760668768237034E-007
        1024  5.153163025776546E-007
        2048  6.215802083412806E-007
        4096  8.178253968556722E-007
        8192  2.903118729591369E-006
       16384  3.530954321225484E-006
       32768  4.637986421585083E-006
       65536  6.712476412455240E-006
      131072  1.192490259806315E-005
      262144  2.556244532267253E-005
      524288  5.225936571756999E-005
     1048576  1.084486643473307E-004
     2097152  2.687613169352214E-004
     4194304  7.142543792724610E-004

