%!PS-Adobe-3.0 EPSF-3.0
%%Creator: (MATLAB, The Mathworks, Inc. Version 8.5.0.197613 \(R2015a\). Operating System: Mac OS X)
%%Title: ./lab1.eps
%%CreationDate: 2015-08-24T07:27:00
%%Pages: (atend)
%%BoundingBox: (atend)
%%LanguageLevel: 2
%%EndComments
%%BeginProlog
%%BeginResource: procset (Apache XML Graphics Std ProcSet) 1.2 0
%%Version: 1.2 0
%%Copyright: (Copyright 2001-2003,2010 The Apache Software Foundation. License terms: http://www.apache.org/licenses/LICENSE-2.0)
/bd{bind def}bind def
/ld{load def}bd
/GR/grestore ld
/M/moveto ld
/LJ/setlinejoin ld
/C/curveto ld
/f/fill ld
/LW/setlinewidth ld
/GC/setgray ld
/t/show ld
/N/newpath ld
/CT/concat ld
/cp/closepath ld
/S/stroke ld
/L/lineto ld
/CC/setcmykcolor ld
/A/ashow ld
/GS/gsave ld
/RC/setrgbcolor ld
/RM/rmoveto ld
/ML/setmiterlimit ld
/re {4 2 roll M
1 index 0 rlineto
0 exch rlineto
neg 0 rlineto
cp } bd
/_ctm matrix def
/_tm matrix def
/BT { _ctm currentmatrix pop matrix _tm copy pop 0 0 moveto } bd
/ET { _ctm setmatrix } bd
/iTm { _ctm setmatrix _tm concat } bd
/Tm { _tm astore pop iTm 0 0 moveto } bd
/ux 0.0 def
/uy 0.0 def
/F {
  /Tp exch def
  /Tf exch def
  Tf findfont Tp scalefont setfont
  /cf Tf def  /cs Tp def
} bd
/ULS {currentpoint /uy exch def /ux exch def} bd
/ULE {
  /Tcx currentpoint pop def
  gsave
  newpath
  cf findfont cs scalefont dup
  /FontMatrix get 0 get /Ts exch def /FontInfo get dup
  /UnderlinePosition get Ts mul /To exch def
  /UnderlineThickness get Ts mul /Tt exch def
  ux uy To add moveto  Tcx uy To add lineto
  Tt setlinewidth stroke
  grestore
} bd
/OLE {
  /Tcx currentpoint pop def
  gsave
  newpath
  cf findfont cs scalefont dup
  /FontMatrix get 0 get /Ts exch def /FontInfo get dup
  /UnderlinePosition get Ts mul /To exch def
  /UnderlineThickness get Ts mul /Tt exch def
  ux uy To add cs add moveto Tcx uy To add cs add lineto
  Tt setlinewidth stroke
  grestore
} bd
/SOE {
  /Tcx currentpoint pop def
  gsave
  newpath
  cf findfont cs scalefont dup
  /FontMatrix get 0 get /Ts exch def /FontInfo get dup
  /UnderlinePosition get Ts mul /To exch def
  /UnderlineThickness get Ts mul /Tt exch def
  ux uy To add cs 10 mul 26 idiv add moveto Tcx uy To add cs 10 mul 26 idiv add lineto
  Tt setlinewidth stroke
  grestore
} bd
/QT {
/Y22 exch store
/X22 exch store
/Y21 exch store
/X21 exch store
currentpoint
/Y21 load 2 mul add 3 div exch
/X21 load 2 mul add 3 div exch
/X21 load 2 mul /X22 load add 3 div
/Y21 load 2 mul /Y22 load add 3 div
/X22 load /Y22 load curveto
} bd
/SSPD {
dup length /d exch dict def
{
/v exch def
/k exch def
currentpagedevice k known {
/cpdv currentpagedevice k get def
v cpdv ne {
/upd false def
/nullv v type /nulltype eq def
/nullcpdv cpdv type /nulltype eq def
nullv nullcpdv or
{
/upd true def
} {
/sametype v type cpdv type eq def
sametype {
v type /arraytype eq {
/vlen v length def
/cpdvlen cpdv length def
vlen cpdvlen eq {
0 1 vlen 1 sub {
/i exch def
/obj v i get def
/cpdobj cpdv i get def
obj cpdobj ne {
/upd true def
exit
} if
} for
} {
/upd true def
} ifelse
} {
v type /dicttype eq {
v {
/dv exch def
/dk exch def
/cpddv cpdv dk get def
dv cpddv ne {
/upd true def
exit
} if
} forall
} {
/upd true def
} ifelse
} ifelse
} if
} ifelse
upd true eq {
d k v put
} if
} if
} if
} forall
d length 0 gt {
d setpagedevice
} if
} bd
%%EndResource
%%BeginResource: procset (Apache XML Graphics EPS ProcSet) 1.0 0
%%Version: 1.0 0
%%Copyright: (Copyright 2002-2003 The Apache Software Foundation. License terms: http://www.apache.org/licenses/LICENSE-2.0)
/BeginEPSF { %def
/b4_Inc_state save def         % Save state for cleanup
/dict_count countdictstack def % Count objects on dict stack
/op_count count 1 sub def      % Count objects on operand stack
userdict begin                 % Push userdict on dict stack
/showpage { } def              % Redefine showpage, { } = null proc
0 setgray 0 setlinecap         % Prepare graphics state
1 setlinewidth 0 setlinejoin
10 setmiterlimit [ ] 0 setdash newpath
/languagelevel where           % If level not equal to 1 then
{pop languagelevel             % set strokeadjust and
1 ne                           % overprint to their defaults.
{false setstrokeadjust false setoverprint
} if
} if
} bd
/EndEPSF { %def
count op_count sub {pop} repeat            % Clean up stacks
countdictstack dict_count sub {end} repeat
b4_Inc_state restore
} bd
%%EndResource
%FOPBeginFontDict
%%IncludeResource: font Courier-Bold
%%IncludeResource: font Helvetica
%%IncludeResource: font Courier-BoldOblique
%%IncludeResource: font Courier-Oblique
%%IncludeResource: font Times-Roman
%%IncludeResource: font Helvetica-BoldOblique
%%IncludeResource: font Helvetica-Bold
%%IncludeResource: font Helvetica-Oblique
%%IncludeResource: font Times-BoldItalic
%%IncludeResource: font Courier
%%IncludeResource: font Times-Italic
%%IncludeResource: font Times-Bold
%%IncludeResource: font Symbol
%%IncludeResource: font ZapfDingbats
%FOPEndFontDict
%%BeginResource: encoding WinAnsiEncoding
/WinAnsiEncoding [
/.notdef /.notdef /.notdef /.notdef /.notdef
/.notdef /.notdef /.notdef /.notdef /.notdef
/.notdef /.notdef /.notdef /.notdef /.notdef
/.notdef /.notdef /.notdef /.notdef /.notdef
/.notdef /.notdef /.notdef /.notdef /.notdef
/.notdef /.notdef /.notdef /.notdef /.notdef
/.notdef /.notdef /space /exclam /quotedbl
/numbersign /dollar /percent /ampersand /quotesingle
/parenleft /parenright /asterisk /plus /comma
/hyphen /period /slash /zero /one
/two /three /four /five /six
/seven /eight /nine /colon /semicolon
/less /equal /greater /question /at
/A /B /C /D /E
/F /G /H /I /J
/K /L /M /N /O
/P /Q /R /S /T
/U /V /W /X /Y
/Z /bracketleft /backslash /bracketright /asciicircum
/underscore /quoteleft /a /b /c
/d /e /f /g /h
/i /j /k /l /m
/n /o /p /q /r
/s /t /u /v /w
/x /y /z /braceleft /bar
/braceright /asciitilde /bullet /Euro /bullet
/quotesinglbase /florin /quotedblbase /ellipsis /dagger
/daggerdbl /circumflex /perthousand /Scaron /guilsinglleft
/OE /bullet /Zcaron /bullet /bullet
/quoteleft /quoteright /quotedblleft /quotedblright /bullet
/endash /emdash /asciitilde /trademark /scaron
/guilsinglright /oe /bullet /zcaron /Ydieresis
/space /exclamdown /cent /sterling /currency
/yen /brokenbar /section /dieresis /copyright
/ordfeminine /guillemotleft /logicalnot /sfthyphen /registered
/macron /degree /plusminus /twosuperior /threesuperior
/acute /mu /paragraph /middot /cedilla
/onesuperior /ordmasculine /guillemotright /onequarter /onehalf
/threequarters /questiondown /Agrave /Aacute /Acircumflex
/Atilde /Adieresis /Aring /AE /Ccedilla
/Egrave /Eacute /Ecircumflex /Edieresis /Igrave
/Iacute /Icircumflex /Idieresis /Eth /Ntilde
/Ograve /Oacute /Ocircumflex /Otilde /Odieresis
/multiply /Oslash /Ugrave /Uacute /Ucircumflex
/Udieresis /Yacute /Thorn /germandbls /agrave
/aacute /acircumflex /atilde /adieresis /aring
/ae /ccedilla /egrave /eacute /ecircumflex
/edieresis /igrave /iacute /icircumflex /idieresis
/eth /ntilde /ograve /oacute /ocircumflex
/otilde /odieresis /divide /oslash /ugrave
/uacute /ucircumflex /udieresis /yacute /thorn
/ydieresis
] def
%%EndResource
%FOPBeginFontReencode
/Courier-Bold findfont
dup length dict begin
  {1 index /FID ne {def} {pop pop} ifelse} forall
  /Encoding WinAnsiEncoding def
  currentdict
end
/Courier-Bold exch definefont pop
/Helvetica findfont
dup length dict begin
  {1 index /FID ne {def} {pop pop} ifelse} forall
  /Encoding WinAnsiEncoding def
  currentdict
end
/Helvetica exch definefont pop
/Courier-BoldOblique findfont
dup length dict begin
  {1 index /FID ne {def} {pop pop} ifelse} forall
  /Encoding WinAnsiEncoding def
  currentdict
end
/Courier-BoldOblique exch definefont pop
/Courier-Oblique findfont
dup length dict begin
  {1 index /FID ne {def} {pop pop} ifelse} forall
  /Encoding WinAnsiEncoding def
  currentdict
end
/Courier-Oblique exch definefont pop
/Times-Roman findfont
dup length dict begin
  {1 index /FID ne {def} {pop pop} ifelse} forall
  /Encoding WinAnsiEncoding def
  currentdict
end
/Times-Roman exch definefont pop
/Helvetica-BoldOblique findfont
dup length dict begin
  {1 index /FID ne {def} {pop pop} ifelse} forall
  /Encoding WinAnsiEncoding def
  currentdict
end
/Helvetica-BoldOblique exch definefont pop
/Helvetica-Bold findfont
dup length dict begin
  {1 index /FID ne {def} {pop pop} ifelse} forall
  /Encoding WinAnsiEncoding def
  currentdict
end
/Helvetica-Bold exch definefont pop
/Helvetica-Oblique findfont
dup length dict begin
  {1 index /FID ne {def} {pop pop} ifelse} forall
  /Encoding WinAnsiEncoding def
  currentdict
end
/Helvetica-Oblique exch definefont pop
/Times-BoldItalic findfont
dup length dict begin
  {1 index /FID ne {def} {pop pop} ifelse} forall
  /Encoding WinAnsiEncoding def
  currentdict
end
/Times-BoldItalic exch definefont pop
/Courier findfont
dup length dict begin
  {1 index /FID ne {def} {pop pop} ifelse} forall
  /Encoding WinAnsiEncoding def
  currentdict
end
/Courier exch definefont pop
/Times-Italic findfont
dup length dict begin
  {1 index /FID ne {def} {pop pop} ifelse} forall
  /Encoding WinAnsiEncoding def
  currentdict
end
/Times-Italic exch definefont pop
/Times-Bold findfont
dup length dict begin
  {1 index /FID ne {def} {pop pop} ifelse} forall
  /Encoding WinAnsiEncoding def
  currentdict
end
/Times-Bold exch definefont pop
%FOPEndFontReencode
%%EndProlog
%%Page: 1 1
%%PageBoundingBox: 0 0 576 432
%%BeginPageSetup
[1 0 0 -1 0 432] CT
%%EndPageSetup
GS
1 GC
N
0 0 576 432 re
f
GR
GS
1 GC
N
0 0 576 432 re
f
GR
GS
1 GC
N
75 384 M
521 384 L
521 32 L
75 32 L
cp
f
GR
GS
0.149 GC
2 setlinecap
10.0 ML
N
75 384 M
521 384 L
S
GR
GS
0.149 GC
2 setlinecap
10.0 ML
N
75 32 M
521 32 L
S
GR
GS
0.149 GC
2 setlinecap
10.0 ML
N
75 384 M
75 379.54 L
S
GR
GS
0.149 GC
2 setlinecap
10.0 ML
N
119.6 384 M
119.6 379.54 L
S
GR
GS
0.149 GC
2 setlinecap
10.0 ML
N
164.2 384 M
164.2 379.54 L
S
GR
GS
0.149 GC
2 setlinecap
10.0 ML
N
208.8 384 M
208.8 379.54 L
S
GR
GS
0.149 GC
2 setlinecap
10.0 ML
N
253.4 384 M
253.4 379.54 L
S
GR
GS
0.149 GC
2 setlinecap
10.0 ML
N
298 384 M
298 379.54 L
S
GR
GS
0.149 GC
2 setlinecap
10.0 ML
N
342.6 384 M
342.6 379.54 L
S
GR
GS
0.149 GC
2 setlinecap
10.0 ML
N
387.2 384 M
387.2 379.54 L
S
GR
GS
0.149 GC
2 setlinecap
10.0 ML
N
431.8 384 M
431.8 379.54 L
S
GR
GS
0.149 GC
2 setlinecap
10.0 ML
N
476.4 384 M
476.4 379.54 L
S
GR
GS
0.149 GC
2 setlinecap
10.0 ML
N
521 384 M
521 379.54 L
S
GR
GS
0.149 GC
2 setlinecap
10.0 ML
N
75 32 M
75 36.46 L
S
GR
GS
0.149 GC
2 setlinecap
10.0 ML
N
119.6 32 M
119.6 36.46 L
S
GR
GS
0.149 GC
2 setlinecap
10.0 ML
N
164.2 32 M
164.2 36.46 L
S
GR
GS
0.149 GC
2 setlinecap
10.0 ML
N
208.8 32 M
208.8 36.46 L
S
GR
GS
0.149 GC
2 setlinecap
10.0 ML
N
253.4 32 M
253.4 36.46 L
S
GR
GS
0.149 GC
2 setlinecap
10.0 ML
N
298 32 M
298 36.46 L
S
GR
GS
0.149 GC
2 setlinecap
10.0 ML
N
342.6 32 M
342.6 36.46 L
S
GR
GS
0.149 GC
2 setlinecap
10.0 ML
N
387.2 32 M
387.2 36.46 L
S
GR
GS
0.149 GC
2 setlinecap
10.0 ML
N
431.8 32 M
431.8 36.46 L
S
GR
GS
0.149 GC
2 setlinecap
10.0 ML
N
476.4 32 M
476.4 36.46 L
S
GR
GS
0.149 GC
2 setlinecap
10.0 ML
N
521 32 M
521 36.46 L
S
GR
GS
[1 0 0 1 75 388] CT
0.149 GC
/Helvetica 10 F
GS
[1 0 0 1 0 0] CT
-4.5 8 moveto 
1 -1 scale
(-1) t 
GR
GR
GS
[1 0 0 1 119.6 388] CT
0.149 GC
/Helvetica 10 F
GS
[1 0 0 1 0 0] CT
-9 8 moveto 
1 -1 scale
(-0.8) t 
GR
GR
GS
[1 0 0 1 164.2 388] CT
0.149 GC
/Helvetica 10 F
GS
[1 0 0 1 0 0] CT
-9 8 moveto 
1 -1 scale
(-0.6) t 
GR
GR
GS
[1 0 0 1 208.8 388] CT
0.149 GC
/Helvetica 10 F
GS
[1 0 0 1 0 0] CT
-9 8 moveto 
1 -1 scale
(-0.4) t 
GR
GR
GS
[1 0 0 1 253.39999 388] CT
0.149 GC
/Helvetica 10 F
GS
[1 0 0 1 0 0] CT
-9 8 moveto 
1 -1 scale
(-0.2) t 
GR
GR
GS
[1 0 0 1 298 388] CT
0.149 GC
/Helvetica 10 F
GS
[1 0 0 1 0 0] CT
-3 8 moveto 
1 -1 scale
(0) t 
GR
GR
GS
[1 0 0 1 342.60001 388] CT
0.149 GC
/Helvetica 10 F
GS
[1 0 0 1 0 0] CT
-7 8 moveto 
1 -1 scale
(0.2) t 
GR
GR
GS
[1 0 0 1 387.20001 388] CT
0.149 GC
/Helvetica 10 F
GS
[1 0 0 1 0 0] CT
-7 8 moveto 
1 -1 scale
(0.4) t 
GR
GR
GS
[1 0 0 1 431.80002 388] CT
0.149 GC
/Helvetica 10 F
GS
[1 0 0 1 0 0] CT
-7 8 moveto 
1 -1 scale
(0.6) t 
GR
GR
GS
[1 0 0 1 476.39999 388] CT
0.149 GC
/Helvetica 10 F
GS
[1 0 0 1 0 0] CT
-7 8 moveto 
1 -1 scale
(0.8) t 
GR
GR
GS
[1 0 0 1 521 388] CT
0.149 GC
/Helvetica 10 F
GS
[1 0 0 1 0 0] CT
-3 8 moveto 
1 -1 scale
(1) t 
GR
GR
GS
0.149 GC
2 setlinecap
10.0 ML
N
75 384 M
75 32 L
S
GR
GS
0.149 GC
2 setlinecap
10.0 ML
N
521 384 M
521 32 L
S
GR
GS
0.149 GC
2 setlinecap
10.0 ML
N
75 384 M
79.46 384 L
S
GR
GS
0.149 GC
2 setlinecap
10.0 ML
N
75 340 M
79.46 340 L
S
GR
GS
0.149 GC
2 setlinecap
10.0 ML
N
75 296 M
79.46 296 L
S
GR
GS
0.149 GC
2 setlinecap
10.0 ML
N
75 252 M
79.46 252 L
S
GR
GS
0.149 GC
2 setlinecap
10.0 ML
N
75 208 M
79.46 208 L
S
GR
GS
0.149 GC
2 setlinecap
10.0 ML
N
75 164 M
79.46 164 L
S
GR
GS
0.149 GC
2 setlinecap
10.0 ML
N
75 120 M
79.46 120 L
S
GR
GS
0.149 GC
2 setlinecap
10.0 ML
N
75 76 M
79.46 76 L
S
GR
GS
0.149 GC
2 setlinecap
10.0 ML
N
75 32 M
79.46 32 L
S
GR
GS
0.149 GC
2 setlinecap
10.0 ML
N
521 384 M
516.54 384 L
S
GR
GS
0.149 GC
2 setlinecap
10.0 ML
N
521 340 M
516.54 340 L
S
GR
GS
0.149 GC
2 setlinecap
10.0 ML
N
521 296 M
516.54 296 L
S
GR
GS
0.149 GC
2 setlinecap
10.0 ML
N
521 252 M
516.54 252 L
S
GR
GS
0.149 GC
2 setlinecap
10.0 ML
N
521 208 M
516.54 208 L
S
GR
GS
0.149 GC
2 setlinecap
10.0 ML
N
521 164 M
516.54 164 L
S
GR
GS
0.149 GC
2 setlinecap
10.0 ML
N
521 120 M
516.54 120 L
S
GR
GS
0.149 GC
2 setlinecap
10.0 ML
N
521 76 M
516.54 76 L
S
GR
GS
0.149 GC
2 setlinecap
10.0 ML
N
521 32 M
516.54 32 L
S
GR
GS
[1 0 0 1 71.00001 384] CT
0.149 GC
/Helvetica 10 F
GS
[1 0 0 1 0 0] CT
-14 2.5 moveto 
1 -1 scale
(0.5) t 
GR
GR
GS
[1 0 0 1 71.00001 340] CT
0.149 GC
/Helvetica 10 F
GS
[1 0 0 1 0 0] CT
-6 2.5 moveto 
1 -1 scale
(1) t 
GR
GR
GS
[1 0 0 1 71.00001 296] CT
0.149 GC
/Helvetica 10 F
GS
[1 0 0 1 0 0] CT
-14 2.5 moveto 
1 -1 scale
(1.5) t 
GR
GR
GS
[1 0 0 1 71.00001 252] CT
0.149 GC
/Helvetica 10 F
GS
[1 0 0 1 0 0] CT
-6 2.5 moveto 
1 -1 scale
(2) t 
GR
GR
GS
[1 0 0 1 71.00001 208] CT
0.149 GC
/Helvetica 10 F
GS
[1 0 0 1 0 0] CT
-14 2.5 moveto 
1 -1 scale
(2.5) t 
GR
GR
GS
[1 0 0 1 71.00001 164] CT
0.149 GC
/Helvetica 10 F
GS
[1 0 0 1 0 0] CT
-6 2.5 moveto 
1 -1 scale
(3) t 
GR
GR
GS
[1 0 0 1 71.00001 120] CT
0.149 GC
/Helvetica 10 F
GS
[1 0 0 1 0 0] CT
-14 2.5 moveto 
1 -1 scale
(3.5) t 
GR
GR
GS
[1 0 0 1 71.00001 76] CT
0.149 GC
/Helvetica 10 F
GS
[1 0 0 1 0 0] CT
-6 2.5 moveto 
1 -1 scale
(4) t 
GR
GR
GS
[1 0 0 1 71.00001 32] CT
0.149 GC
/Helvetica 10 F
GS
[1 0 0 1 0 0] CT
-14 2.5 moveto 
1 -1 scale
(4.5) t 
GR
GR
GS
0 0.447 0.741 RC
2 setlinecap
10.0 ML
N
75 282.913 M
78.748 239.654 L
82.496 187.879 L
86.244 132.374 L
89.992 81.553 L
93.739 45.759 L
97.487 33.646 L
101.235 48.383 L
104.983 86.131 L
108.731 137.877 L
112.479 193.334 L
116.227 244.41 L
119.975 286.692 L
123.723 319.038 L
127.471 342.296 L
131.218 358.085 L
134.966 368.006 L
138.714 373.27 L
142.462 374.583 L
146.21 372.128 L
149.958 365.564 L
153.706 354.031 L
157.454 336.181 L
161.202 310.351 L
164.95 275.05 L
168.697 229.882 L
172.445 176.855 L
176.193 121.513 L
179.941 72.864 L
183.689 41.242 L
187.437 34.469 L
191.185 54.328 L
194.933 95.697 L
198.681 148.978 L
202.429 204.095 L
206.176 253.646 L
209.924 293.949 L
213.672 324.369 L
217.42 345.996 L
221.168 360.493 L
224.916 369.401 L
228.664 373.836 L
232.412 374.397 L
236.16 371.164 L
239.908 363.692 L
243.655 351.017 L
247.403 331.708 L
251.151 304.085 L
254.899 266.785 L
258.647 219.783 L
S
GR
GS
0 0.447 0.741 RC
2 setlinecap
10.0 ML
N
258.647 219.783 M
262.395 165.727 L
266.143 110.916 L
269.891 64.864 L
273.639 37.74 L
277.387 36.381 L
281.134 61.148 L
284.882 105.741 L
288.63 160.143 L
292.378 214.622 L
296.126 262.503 L
299.874 300.805 L
303.622 329.347 L
307.37 349.412 L
311.118 362.679 L
314.866 370.619 L
318.613 374.248 L
322.361 374.061 L
326.109 370.032 L
329.857 361.613 L
333.605 347.739 L
337.353 326.902 L
341.101 297.427 L
344.849 258.123 L
348.597 209.391 L
352.345 154.557 L
356.092 100.665 L
359.84 57.632 L
363.588 35.29 L
367.336 39.361 L
371.084 68.773 L
374.832 116.176 L
378.58 171.301 L
382.328 224.872 L
386.076 270.967 L
389.824 307.266 L
393.571 333.985 L
397.319 352.557 L
401.067 364.653 L
404.815 371.666 L
408.563 374.509 L
412.311 373.572 L
416.059 368.726 L
419.807 359.317 L
423.555 344.182 L
427.303 321.748 L
431.05 290.371 L
434.798 249.074 L
438.546 198.741 L
442.294 143.415 L
S
GR
GS
0 0.447 0.741 RC
2 setlinecap
10.0 ML
N
442.294 143.415 M
446.042 90.849 L
449.79 51.242 L
453.538 33.92 L
457.286 43.377 L
461.034 77.128 L
464.782 126.916 L
468.529 182.384 L
472.277 234.81 L
476.025 279.032 L
479.773 313.341 L
483.521 338.297 L
487.269 355.443 L
491.017 366.426 L
494.765 372.548 L
498.513 374.621 L
502.26 372.929 L
506.008 367.239 L
509.756 356.794 L
513.504 340.334 L
517.252 316.236 L
521 282.913 L
S
GR
%%Trailer
%%BoundingBox: 57 33 523 405
%%Pages: 1
%%EOF
