
Launching MATLAB Version R2011a GUI

For help, please visit http://FastInfo.unm.edu entry below:

http://unm.custhelp.com/cgi-bin/unm.cfg/php/enduser/std_adp.php?p_faqid=3623


                            < M A T L A B (R) >
                  Copyright 1984-2010 The MathWorks, Inc.
                Version 7.12.0.635 (R2011a) 64-bit (glnxa64)
                               March 18, 2011

 
  To get started, type one of these: helpwin, helpdesk, or demo.
  For product information, visit www.mathworks.com.
 
>> >> >> >> >> >> >> >> 