%!PS-Adobe-3.0 EPSF-3.0
%%Creator: (MATLAB, The Mathworks, Inc. Version 8.4.0.150421 \(R2014b\). Operating System: Mac OS X)
%%Title: ./error_v1.eps
%%CreationDate: 2015-11-24T20:57:09
%%Pages: (atend)
%%BoundingBox: (atend)
%%LanguageLevel: 2
%%EndComments
%%BeginProlog
%%BeginResource: procset (Apache XML Graphics Std ProcSet) 1.2 0
%%Version: 1.2 0
%%Copyright: (Copyright 2001-2003,2010 The Apache Software Foundation. License terms: http://www.apache.org/licenses/LICENSE-2.0)
/bd{bind def}bind def
/ld{load def}bd
/GR/grestore ld
/M/moveto ld
/LJ/setlinejoin ld
/C/curveto ld
/f/fill ld
/LW/setlinewidth ld
/GC/setgray ld
/t/show ld
/N/newpath ld
/CT/concat ld
/cp/closepath ld
/S/stroke ld
/L/lineto ld
/CC/setcmykcolor ld
/A/ashow ld
/GS/gsave ld
/RC/setrgbcolor ld
/RM/rmoveto ld
/ML/setmiterlimit ld
/re {4 2 roll M
1 index 0 rlineto
0 exch rlineto
neg 0 rlineto
cp } bd
/_ctm matrix def
/_tm matrix def
/BT { _ctm currentmatrix pop matrix _tm copy pop 0 0 moveto } bd
/ET { _ctm setmatrix } bd
/iTm { _ctm setmatrix _tm concat } bd
/Tm { _tm astore pop iTm 0 0 moveto } bd
/ux 0.0 def
/uy 0.0 def
/F {
  /Tp exch def
  /Tf exch def
  Tf findfont Tp scalefont setfont
  /cf Tf def  /cs Tp def
} bd
/ULS {currentpoint /uy exch def /ux exch def} bd
/ULE {
  /Tcx currentpoint pop def
  gsave
  newpath
  cf findfont cs scalefont dup
  /FontMatrix get 0 get /Ts exch def /FontInfo get dup
  /UnderlinePosition get Ts mul /To exch def
  /UnderlineThickness get Ts mul /Tt exch def
  ux uy To add moveto  Tcx uy To add lineto
  Tt setlinewidth stroke
  grestore
} bd
/OLE {
  /Tcx currentpoint pop def
  gsave
  newpath
  cf findfont cs scalefont dup
  /FontMatrix get 0 get /Ts exch def /FontInfo get dup
  /UnderlinePosition get Ts mul /To exch def
  /UnderlineThickness get Ts mul /Tt exch def
  ux uy To add cs add moveto Tcx uy To add cs add lineto
  Tt setlinewidth stroke
  grestore
} bd
/SOE {
  /Tcx currentpoint pop def
  gsave
  newpath
  cf findfont cs scalefont dup
  /FontMatrix get 0 get /Ts exch def /FontInfo get dup
  /UnderlinePosition get Ts mul /To exch def
  /UnderlineThickness get Ts mul /Tt exch def
  ux uy To add cs 10 mul 26 idiv add moveto Tcx uy To add cs 10 mul 26 idiv add lineto
  Tt setlinewidth stroke
  grestore
} bd
/QT {
/Y22 exch store
/X22 exch store
/Y21 exch store
/X21 exch store
currentpoint
/Y21 load 2 mul add 3 div exch
/X21 load 2 mul add 3 div exch
/X21 load 2 mul /X22 load add 3 div
/Y21 load 2 mul /Y22 load add 3 div
/X22 load /Y22 load curveto
} bd
/SSPD {
dup length /d exch dict def
{
/v exch def
/k exch def
currentpagedevice k known {
/cpdv currentpagedevice k get def
v cpdv ne {
/upd false def
/nullv v type /nulltype eq def
/nullcpdv cpdv type /nulltype eq def
nullv nullcpdv or
{
/upd true def
} {
/sametype v type cpdv type eq def
sametype {
v type /arraytype eq {
/vlen v length def
/cpdvlen cpdv length def
vlen cpdvlen eq {
0 1 vlen 1 sub {
/i exch def
/obj v i get def
/cpdobj cpdv i get def
obj cpdobj ne {
/upd true def
exit
} if
} for
} {
/upd true def
} ifelse
} {
v type /dicttype eq {
v {
/dv exch def
/dk exch def
/cpddv cpdv dk get def
dv cpddv ne {
/upd true def
exit
} if
} forall
} {
/upd true def
} ifelse
} ifelse
} if
} ifelse
upd true eq {
d k v put
} if
} if
} if
} forall
d length 0 gt {
d setpagedevice
} if
} bd
%%EndResource
%%BeginResource: procset (Apache XML Graphics EPS ProcSet) 1.0 0
%%Version: 1.0 0
%%Copyright: (Copyright 2002-2003 The Apache Software Foundation. License terms: http://www.apache.org/licenses/LICENSE-2.0)
/BeginEPSF { %def
/b4_Inc_state save def         % Save state for cleanup
/dict_count countdictstack def % Count objects on dict stack
/op_count count 1 sub def      % Count objects on operand stack
userdict begin                 % Push userdict on dict stack
/showpage { } def              % Redefine showpage, { } = null proc
0 setgray 0 setlinecap         % Prepare graphics state
1 setlinewidth 0 setlinejoin
10 setmiterlimit [ ] 0 setdash newpath
/languagelevel where           % If level not equal to 1 then
{pop languagelevel             % set strokeadjust and
1 ne                           % overprint to their defaults.
{false setstrokeadjust false setoverprint
} if
} if
} bd
/EndEPSF { %def
count op_count sub {pop} repeat            % Clean up stacks
countdictstack dict_count sub {end} repeat
b4_Inc_state restore
} bd
%%EndResource
%FOPBeginFontDict
%%IncludeResource: font Courier-Bold
%%IncludeResource: font Helvetica
%%IncludeResource: font Courier-BoldOblique
%%IncludeResource: font Courier-Oblique
%%IncludeResource: font Times-Roman
%%IncludeResource: font Helvetica-BoldOblique
%%IncludeResource: font Helvetica-Bold
%%IncludeResource: font Helvetica-Oblique
%%IncludeResource: font Times-BoldItalic
%%IncludeResource: font Courier
%%IncludeResource: font Times-Italic
%%IncludeResource: font Times-Bold
%%IncludeResource: font Symbol
%%IncludeResource: font ZapfDingbats
%FOPEndFontDict
%%BeginResource: encoding WinAnsiEncoding
/WinAnsiEncoding [
/.notdef /.notdef /.notdef /.notdef /.notdef
/.notdef /.notdef /.notdef /.notdef /.notdef
/.notdef /.notdef /.notdef /.notdef /.notdef
/.notdef /.notdef /.notdef /.notdef /.notdef
/.notdef /.notdef /.notdef /.notdef /.notdef
/.notdef /.notdef /.notdef /.notdef /.notdef
/.notdef /.notdef /space /exclam /quotedbl
/numbersign /dollar /percent /ampersand /quotesingle
/parenleft /parenright /asterisk /plus /comma
/hyphen /period /slash /zero /one
/two /three /four /five /six
/seven /eight /nine /colon /semicolon
/less /equal /greater /question /at
/A /B /C /D /E
/F /G /H /I /J
/K /L /M /N /O
/P /Q /R /S /T
/U /V /W /X /Y
/Z /bracketleft /backslash /bracketright /asciicircum
/underscore /quoteleft /a /b /c
/d /e /f /g /h
/i /j /k /l /m
/n /o /p /q /r
/s /t /u /v /w
/x /y /z /braceleft /bar
/braceright /asciitilde /bullet /Euro /bullet
/quotesinglbase /florin /quotedblbase /ellipsis /dagger
/daggerdbl /circumflex /perthousand /Scaron /guilsinglleft
/OE /bullet /Zcaron /bullet /bullet
/quoteleft /quoteright /quotedblleft /quotedblright /bullet
/endash /emdash /asciitilde /trademark /scaron
/guilsinglright /oe /bullet /zcaron /Ydieresis
/space /exclamdown /cent /sterling /currency
/yen /brokenbar /section /dieresis /copyright
/ordfeminine /guillemotleft /logicalnot /sfthyphen /registered
/macron /degree /plusminus /twosuperior /threesuperior
/acute /mu /paragraph /middot /cedilla
/onesuperior /ordmasculine /guillemotright /onequarter /onehalf
/threequarters /questiondown /Agrave /Aacute /Acircumflex
/Atilde /Adieresis /Aring /AE /Ccedilla
/Egrave /Eacute /Ecircumflex /Edieresis /Igrave
/Iacute /Icircumflex /Idieresis /Eth /Ntilde
/Ograve /Oacute /Ocircumflex /Otilde /Odieresis
/multiply /Oslash /Ugrave /Uacute /Ucircumflex
/Udieresis /Yacute /Thorn /germandbls /agrave
/aacute /acircumflex /atilde /adieresis /aring
/ae /ccedilla /egrave /eacute /ecircumflex
/edieresis /igrave /iacute /icircumflex /idieresis
/eth /ntilde /ograve /oacute /ocircumflex
/otilde /odieresis /divide /oslash /ugrave
/uacute /ucircumflex /udieresis /yacute /thorn
/ydieresis
] def
%%EndResource
%FOPBeginFontReencode
/Courier-Bold findfont
dup length dict begin
  {1 index /FID ne {def} {pop pop} ifelse} forall
  /Encoding WinAnsiEncoding def
  currentdict
end
/Courier-Bold exch definefont pop
/Helvetica findfont
dup length dict begin
  {1 index /FID ne {def} {pop pop} ifelse} forall
  /Encoding WinAnsiEncoding def
  currentdict
end
/Helvetica exch definefont pop
/Courier-BoldOblique findfont
dup length dict begin
  {1 index /FID ne {def} {pop pop} ifelse} forall
  /Encoding WinAnsiEncoding def
  currentdict
end
/Courier-BoldOblique exch definefont pop
/Courier-Oblique findfont
dup length dict begin
  {1 index /FID ne {def} {pop pop} ifelse} forall
  /Encoding WinAnsiEncoding def
  currentdict
end
/Courier-Oblique exch definefont pop
/Times-Roman findfont
dup length dict begin
  {1 index /FID ne {def} {pop pop} ifelse} forall
  /Encoding WinAnsiEncoding def
  currentdict
end
/Times-Roman exch definefont pop
/Helvetica-BoldOblique findfont
dup length dict begin
  {1 index /FID ne {def} {pop pop} ifelse} forall
  /Encoding WinAnsiEncoding def
  currentdict
end
/Helvetica-BoldOblique exch definefont pop
/Helvetica-Bold findfont
dup length dict begin
  {1 index /FID ne {def} {pop pop} ifelse} forall
  /Encoding WinAnsiEncoding def
  currentdict
end
/Helvetica-Bold exch definefont pop
/Helvetica-Oblique findfont
dup length dict begin
  {1 index /FID ne {def} {pop pop} ifelse} forall
  /Encoding WinAnsiEncoding def
  currentdict
end
/Helvetica-Oblique exch definefont pop
/Times-BoldItalic findfont
dup length dict begin
  {1 index /FID ne {def} {pop pop} ifelse} forall
  /Encoding WinAnsiEncoding def
  currentdict
end
/Times-BoldItalic exch definefont pop
/Courier findfont
dup length dict begin
  {1 index /FID ne {def} {pop pop} ifelse} forall
  /Encoding WinAnsiEncoding def
  currentdict
end
/Courier exch definefont pop
/Times-Italic findfont
dup length dict begin
  {1 index /FID ne {def} {pop pop} ifelse} forall
  /Encoding WinAnsiEncoding def
  currentdict
end
/Times-Italic exch definefont pop
/Times-Bold findfont
dup length dict begin
  {1 index /FID ne {def} {pop pop} ifelse} forall
  /Encoding WinAnsiEncoding def
  currentdict
end
/Times-Bold exch definefont pop
%FOPEndFontReencode
%%EndProlog
%%Page: 1 1
%%PageBoundingBox: 0 0 576 432
%%BeginPageSetup
[1 0 0 -1 0 432] CT
%%EndPageSetup
GS
1 GC
N
0 0 576 432 re
f
GR
GS
1 GC
N
0 0 576 432 re
f
GR
GS
1 GC
N
75 384 M
521 384 L
521 32 L
75 32 L
cp
f
GR
GS
0.149 GC
2 setlinecap
10.0 ML
N
142.13 384 M
142.13 381.77 L
S
GR
GS
0.149 GC
2 setlinecap
10.0 ML
N
142.13 32 M
142.13 34.23 L
S
GR
GS
0.149 GC
2 setlinecap
10.0 ML
N
181.398 384 M
181.398 381.77 L
S
GR
GS
0.149 GC
2 setlinecap
10.0 ML
N
181.398 32 M
181.398 34.23 L
S
GR
GS
0.149 GC
2 setlinecap
10.0 ML
N
209.259 384 M
209.259 381.77 L
S
GR
GS
0.149 GC
2 setlinecap
10.0 ML
N
209.259 32 M
209.259 34.23 L
S
GR
GS
0.149 GC
2 setlinecap
10.0 ML
N
230.87 384 M
230.87 381.77 L
S
GR
GS
0.149 GC
2 setlinecap
10.0 ML
N
230.87 32 M
230.87 34.23 L
S
GR
GS
0.149 GC
2 setlinecap
10.0 ML
N
248.528 384 M
248.528 381.77 L
S
GR
GS
0.149 GC
2 setlinecap
10.0 ML
N
248.528 32 M
248.528 34.23 L
S
GR
GS
0.149 GC
2 setlinecap
10.0 ML
N
263.457 384 M
263.457 381.77 L
S
GR
GS
0.149 GC
2 setlinecap
10.0 ML
N
263.457 32 M
263.457 34.23 L
S
GR
GS
0.149 GC
2 setlinecap
10.0 ML
N
276.389 384 M
276.389 381.77 L
S
GR
GS
0.149 GC
2 setlinecap
10.0 ML
N
276.389 32 M
276.389 34.23 L
S
GR
GS
0.149 GC
2 setlinecap
10.0 ML
N
287.796 384 M
287.796 381.77 L
S
GR
GS
0.149 GC
2 setlinecap
10.0 ML
N
287.796 32 M
287.796 34.23 L
S
GR
GS
0.149 GC
2 setlinecap
10.0 ML
N
365.13 384 M
365.13 381.77 L
S
GR
GS
0.149 GC
2 setlinecap
10.0 ML
N
365.13 32 M
365.13 34.23 L
S
GR
GS
0.149 GC
2 setlinecap
10.0 ML
N
404.398 384 M
404.398 381.77 L
S
GR
GS
0.149 GC
2 setlinecap
10.0 ML
N
404.398 32 M
404.398 34.23 L
S
GR
GS
0.149 GC
2 setlinecap
10.0 ML
N
432.259 384 M
432.259 381.77 L
S
GR
GS
0.149 GC
2 setlinecap
10.0 ML
N
432.259 32 M
432.259 34.23 L
S
GR
GS
0.149 GC
2 setlinecap
10.0 ML
N
453.87 384 M
453.87 381.77 L
S
GR
GS
0.149 GC
2 setlinecap
10.0 ML
N
453.87 32 M
453.87 34.23 L
S
GR
GS
0.149 GC
2 setlinecap
10.0 ML
N
471.528 384 M
471.528 381.77 L
S
GR
GS
0.149 GC
2 setlinecap
10.0 ML
N
471.528 32 M
471.528 34.23 L
S
GR
GS
0.149 GC
2 setlinecap
10.0 ML
N
486.457 384 M
486.457 381.77 L
S
GR
GS
0.149 GC
2 setlinecap
10.0 ML
N
486.457 32 M
486.457 34.23 L
S
GR
GS
0.149 GC
2 setlinecap
10.0 ML
N
499.389 384 M
499.389 381.77 L
S
GR
GS
0.149 GC
2 setlinecap
10.0 ML
N
499.389 32 M
499.389 34.23 L
S
GR
GS
0.149 GC
2 setlinecap
10.0 ML
N
510.796 384 M
510.796 381.77 L
S
GR
GS
0.149 GC
2 setlinecap
10.0 ML
N
510.796 32 M
510.796 34.23 L
S
GR
GS
[1 0 0 1 298 403.39999] CT
0.149 GC
/Helvetica 13 F
GS
[1 0 0 1 0 0] CT
-59.255 10.01 moveto 
1 -1 scale
(number of gridpoints) t 
GR
GR
GS
0.149 GC
2 setlinecap
10.0 ML
N
75 384 M
521 384 L
S
GR
GS
0.149 GC
2 setlinecap
10.0 ML
N
75 32 M
521 32 L
S
GR
GS
0.149 GC
2 setlinecap
10.0 ML
N
75 384 M
75 379.54 L
S
GR
GS
0.149 GC
2 setlinecap
10.0 ML
N
75 32 M
75 36.46 L
S
GR
GS
0.149 GC
2 setlinecap
10.0 ML
N
298 384 M
298 379.54 L
S
GR
GS
0.149 GC
2 setlinecap
10.0 ML
N
298 32 M
298 36.46 L
S
GR
GS
0.149 GC
2 setlinecap
10.0 ML
N
521 384 M
521 379.54 L
S
GR
GS
0.149 GC
2 setlinecap
10.0 ML
N
521 32 M
521 36.46 L
S
GR
GS
[1 0 0 1 63 400] CT
0.149 GC
/Helvetica 12 F
GS
[1 0 0 1 0 0] CT
0 0 moveto 
1 -1 scale
(10) t 
GR
GR
GS
[1 0 0 1 77 394] CT
0.149 GC
/Helvetica 9 F
GS
[1 0 0 1 0 0] CT
0 0 moveto 
1 -1 scale
(-2) t 
GR
GR
GS
[1 0 0 1 286 400] CT
0.149 GC
/Helvetica 12 F
GS
[1 0 0 1 0 0] CT
0 0 moveto 
1 -1 scale
(10) t 
GR
GR
GS
[1 0 0 1 300 394] CT
0.149 GC
/Helvetica 9 F
GS
[1 0 0 1 0 0] CT
0 0 moveto 
1 -1 scale
(-1) t 
GR
GR
GS
[1 0 0 1 511 400] CT
0.149 GC
/Helvetica 12 F
GS
[1 0 0 1 0 0] CT
0 0 moveto 
1 -1 scale
(10) t 
GR
GR
GS
[1 0 0 1 525 394] CT
0.149 GC
/Helvetica 9 F
GS
[1 0 0 1 0 0] CT
0 0 moveto 
1 -1 scale
(0) t 
GR
GR
GS
0.149 GC
2 setlinecap
10.0 ML
N
75 369.261 M
77.23 369.261 L
S
GR
GS
0.149 GC
2 setlinecap
10.0 ML
N
521 369.261 M
518.77 369.261 L
S
GR
GS
0.149 GC
2 setlinecap
10.0 ML
N
75 297.869 M
77.23 297.869 L
S
GR
GS
0.149 GC
2 setlinecap
10.0 ML
N
521 297.869 M
518.77 297.869 L
S
GR
GS
0.149 GC
2 setlinecap
10.0 ML
N
75 270.727 M
77.23 270.727 L
S
GR
GS
0.149 GC
2 setlinecap
10.0 ML
N
521 270.727 M
518.77 270.727 L
S
GR
GS
0.149 GC
2 setlinecap
10.0 ML
N
75 247.215 M
77.23 247.215 L
S
GR
GS
0.149 GC
2 setlinecap
10.0 ML
N
521 247.215 M
518.77 247.215 L
S
GR
GS
0.149 GC
2 setlinecap
10.0 ML
N
75 226.477 M
77.23 226.477 L
S
GR
GS
0.149 GC
2 setlinecap
10.0 ML
N
521 226.477 M
518.77 226.477 L
S
GR
GS
0.149 GC
2 setlinecap
10.0 ML
N
75 191.144 M
77.23 191.144 L
S
GR
GS
0.149 GC
2 setlinecap
10.0 ML
N
521 191.144 M
518.77 191.144 L
S
GR
GS
0.149 GC
2 setlinecap
10.0 ML
N
75 175.823 M
77.23 175.823 L
S
GR
GS
0.149 GC
2 setlinecap
10.0 ML
N
521 175.823 M
518.77 175.823 L
S
GR
GS
0.149 GC
2 setlinecap
10.0 ML
N
75 161.73 M
77.23 161.73 L
S
GR
GS
0.149 GC
2 setlinecap
10.0 ML
N
521 161.73 M
518.77 161.73 L
S
GR
GS
0.149 GC
2 setlinecap
10.0 ML
N
75 148.681 M
77.23 148.681 L
S
GR
GS
0.149 GC
2 setlinecap
10.0 ML
N
521 148.681 M
518.77 148.681 L
S
GR
GS
0.149 GC
2 setlinecap
10.0 ML
N
75 125.17 M
77.23 125.17 L
S
GR
GS
0.149 GC
2 setlinecap
10.0 ML
N
521 125.17 M
518.77 125.17 L
S
GR
GS
0.149 GC
2 setlinecap
10.0 ML
N
75 114.495 M
77.23 114.495 L
S
GR
GS
0.149 GC
2 setlinecap
10.0 ML
N
521 114.495 M
518.77 114.495 L
S
GR
GS
0.149 GC
2 setlinecap
10.0 ML
N
75 104.431 M
77.23 104.431 L
S
GR
GS
0.149 GC
2 setlinecap
10.0 ML
N
521 104.431 M
518.77 104.431 L
S
GR
GS
0.149 GC
2 setlinecap
10.0 ML
N
75 94.911 M
77.23 94.911 L
S
GR
GS
0.149 GC
2 setlinecap
10.0 ML
N
521 94.911 M
518.77 94.911 L
S
GR
GS
0.149 GC
2 setlinecap
10.0 ML
N
75 77.289 M
77.23 77.289 L
S
GR
GS
0.149 GC
2 setlinecap
10.0 ML
N
521 77.289 M
518.77 77.289 L
S
GR
GS
0.149 GC
2 setlinecap
10.0 ML
N
75 69.098 M
77.23 69.098 L
S
GR
GS
0.149 GC
2 setlinecap
10.0 ML
N
521 69.098 M
518.77 69.098 L
S
GR
GS
0.149 GC
2 setlinecap
10.0 ML
N
75 61.271 M
77.23 61.271 L
S
GR
GS
0.149 GC
2 setlinecap
10.0 ML
N
521 61.271 M
518.77 61.271 L
S
GR
GS
0.149 GC
2 setlinecap
10.0 ML
N
75 53.777 M
77.23 53.777 L
S
GR
GS
0.149 GC
2 setlinecap
10.0 ML
N
521 53.777 M
518.77 53.777 L
S
GR
GS
0.149 GC
2 setlinecap
10.0 ML
N
75 39.684 M
77.23 39.684 L
S
GR
GS
0.149 GC
2 setlinecap
10.0 ML
N
521 39.684 M
518.77 39.684 L
S
GR
GS
0.149 GC
2 setlinecap
10.0 ML
N
75 33.039 M
77.23 33.039 L
S
GR
GS
0.149 GC
2 setlinecap
10.0 ML
N
521 33.039 M
518.77 33.039 L
S
GR
GS
[0 -1 1 0 50.91836 208] CT
0.149 GC
/Helvetica 13 F
GS
[1 0 0 1 0 0] CT
-43.697 -1.99 moveto 
1 -1 scale
(Maximum error) t 
GR
GR
GS
0.149 GC
2 setlinecap
10.0 ML
N
75 384 M
75 32 L
S
GR
GS
0.149 GC
2 setlinecap
10.0 ML
N
521 384 M
521 32 L
S
GR
GS
0.149 GC
2 setlinecap
10.0 ML
N
75 329.971 M
79.46 329.971 L
S
GR
GS
0.149 GC
2 setlinecap
10.0 ML
N
521 329.971 M
516.54 329.971 L
S
GR
GS
0.149 GC
2 setlinecap
10.0 ML
N
75 207.925 M
79.46 207.925 L
S
GR
GS
0.149 GC
2 setlinecap
10.0 ML
N
521 207.925 M
516.54 207.925 L
S
GR
GS
0.149 GC
2 setlinecap
10.0 ML
N
75 136.533 M
79.46 136.533 L
S
GR
GS
0.149 GC
2 setlinecap
10.0 ML
N
521 136.533 M
516.54 136.533 L
S
GR
GS
0.149 GC
2 setlinecap
10.0 ML
N
75 85.88 M
79.46 85.88 L
S
GR
GS
0.149 GC
2 setlinecap
10.0 ML
N
521 85.88 M
516.54 85.88 L
S
GR
GS
0.149 GC
2 setlinecap
10.0 ML
N
75 46.59 M
79.46 46.59 L
S
GR
GS
0.149 GC
2 setlinecap
10.0 ML
N
521 46.59 M
516.54 46.59 L
S
GR
GS
[1 0 0 1 70.6 329.97098] CT
0.149 GC
/Helvetica 12 F
GS
[1 0 0 1 0 0] CT
-16.682 3.74 moveto 
1 -1 scale
(0.5) t 
GR
GR
GS
[1 0 0 1 70.6 207.92531] CT
0.149 GC
/Helvetica 12 F
GS
[1 0 0 1 0 0] CT
-6.674 3.74 moveto 
1 -1 scale
(1) t 
GR
GR
GS
[1 0 0 1 70.6 136.53314] CT
0.149 GC
/Helvetica 12 F
GS
[1 0 0 1 0 0] CT
-16.682 3.74 moveto 
1 -1 scale
(1.5) t 
GR
GR
GS
[1 0 0 1 70.6 85.87962] CT
0.149 GC
/Helvetica 12 F
GS
[1 0 0 1 0 0] CT
-6.674 3.74 moveto 
1 -1 scale
(2) t 
GR
GR
GS
[1 0 0 1 70.6 46.58968] CT
0.149 GC
/Helvetica 12 F
GS
[1 0 0 1 0 0] CT
-16.682 3.74 moveto 
1 -1 scale
(2.5) t 
GR
GR
GS
0 0.447 0.741 RC
2 setlinecap
10.0 ML
2 LW
N
142.13 32.198 M
209.259 33.239 L
248.528 34.969 L
276.389 37.382 L
298 40.468 L
315.657 44.215 L
330.587 48.608 L
343.519 53.63 L
354.926 59.261 L
365.13 65.478 L
374.36 72.257 L
382.787 79.572 L
390.539 87.394 L
397.716 95.691 L
404.398 104.431 L
410.648 113.58 L
416.52 123.101 L
422.055 132.956 L
427.292 143.108 L
432.259 153.515 L
436.985 164.137 L
441.49 174.932 L
445.795 185.857 L
449.917 196.869 L
453.87 207.925 L
457.669 218.981 L
461.324 229.993 L
464.846 240.918 L
468.244 251.713 L
471.528 262.335 L
474.703 272.743 L
477.778 282.894 L
480.758 292.75 L
483.649 302.271 L
486.457 311.419 L
489.185 320.16 L
491.839 328.457 L
494.421 336.278 L
496.937 343.593 L
499.389 350.373 L
501.78 356.59 L
504.114 362.221 L
506.393 367.242 L
508.62 371.635 L
510.796 375.382 L
512.925 378.468 L
515.008 380.881 L
517.046 382.612 L
519.043 383.653 L
521 384 L
S
GR
GS
0 0.447 0.741 RC
2 setlinecap
10.0 ML
2 LW
N
145.5 32.5 M
144.621 30.379 L
142.5 29.5 L
140.379 30.379 L
139.5 32.5 L
140.379 34.621 L
142.5 35.5 L
144.621 34.621 L
145.5 32.5 L
S
GR
GS
0 0.447 0.741 RC
2 setlinecap
10.0 ML
2 LW
N
212.5 33.5 M
211.621 31.379 L
209.5 30.5 L
207.379 31.379 L
206.5 33.5 L
207.379 35.621 L
209.5 36.5 L
211.621 35.621 L
212.5 33.5 L
S
GR
GS
0 0.447 0.741 RC
2 setlinecap
10.0 ML
2 LW
N
251.5 34.5 M
250.621 32.379 L
248.5 31.5 L
246.379 32.379 L
245.5 34.5 L
246.379 36.621 L
248.5 37.5 L
250.621 36.621 L
251.5 34.5 L
S
GR
GS
0 0.447 0.741 RC
2 setlinecap
10.0 ML
2 LW
N
279.5 37.5 M
278.621 35.379 L
276.5 34.5 L
274.379 35.379 L
273.5 37.5 L
274.379 39.621 L
276.5 40.5 L
278.621 39.621 L
279.5 37.5 L
S
GR
GS
0 0.447 0.741 RC
2 setlinecap
10.0 ML
2 LW
N
301.5 40.5 M
300.621 38.379 L
298.5 37.5 L
296.379 38.379 L
295.5 40.5 L
296.379 42.621 L
298.5 43.5 L
300.621 42.621 L
301.5 40.5 L
S
GR
GS
0 0.447 0.741 RC
2 setlinecap
10.0 ML
2 LW
N
318.5 44.5 M
317.621 42.379 L
315.5 41.5 L
313.379 42.379 L
312.5 44.5 L
313.379 46.621 L
315.5 47.5 L
317.621 46.621 L
318.5 44.5 L
S
GR
GS
0 0.447 0.741 RC
2 setlinecap
10.0 ML
2 LW
N
333.5 48.5 M
332.621 46.379 L
330.5 45.5 L
328.379 46.379 L
327.5 48.5 L
328.379 50.621 L
330.5 51.5 L
332.621 50.621 L
333.5 48.5 L
S
GR
GS
0 0.447 0.741 RC
2 setlinecap
10.0 ML
2 LW
N
346.5 53.5 M
345.621 51.379 L
343.5 50.5 L
341.379 51.379 L
340.5 53.5 L
341.379 55.621 L
343.5 56.5 L
345.621 55.621 L
346.5 53.5 L
S
GR
GS
0 0.447 0.741 RC
2 setlinecap
10.0 ML
2 LW
N
357.5 59.5 M
356.621 57.379 L
354.5 56.5 L
352.379 57.379 L
351.5 59.5 L
352.379 61.621 L
354.5 62.5 L
356.621 61.621 L
357.5 59.5 L
S
GR
GS
0 0.447 0.741 RC
2 setlinecap
10.0 ML
2 LW
N
368.5 65.5 M
367.621 63.379 L
365.5 62.5 L
363.379 63.379 L
362.5 65.5 L
363.379 67.621 L
365.5 68.5 L
367.621 67.621 L
368.5 65.5 L
S
GR
GS
0 0.447 0.741 RC
2 setlinecap
10.0 ML
2 LW
N
377.5 72.5 M
376.621 70.379 L
374.5 69.5 L
372.379 70.379 L
371.5 72.5 L
372.379 74.621 L
374.5 75.5 L
376.621 74.621 L
377.5 72.5 L
S
GR
GS
0 0.447 0.741 RC
2 setlinecap
10.0 ML
2 LW
N
385.5 79.5 M
384.621 77.379 L
382.5 76.5 L
380.379 77.379 L
379.5 79.5 L
380.379 81.621 L
382.5 82.5 L
384.621 81.621 L
385.5 79.5 L
S
GR
GS
0 0.447 0.741 RC
2 setlinecap
10.0 ML
2 LW
N
393.5 87.5 M
392.621 85.379 L
390.5 84.5 L
388.379 85.379 L
387.5 87.5 L
388.379 89.621 L
390.5 90.5 L
392.621 89.621 L
393.5 87.5 L
S
GR
GS
0 0.447 0.741 RC
2 setlinecap
10.0 ML
2 LW
N
400.5 95.5 M
399.621 93.379 L
397.5 92.5 L
395.379 93.379 L
394.5 95.5 L
395.379 97.621 L
397.5 98.5 L
399.621 97.621 L
400.5 95.5 L
S
GR
GS
0 0.447 0.741 RC
2 setlinecap
10.0 ML
2 LW
N
407.5 104.5 M
406.621 102.379 L
404.5 101.5 L
402.379 102.379 L
401.5 104.5 L
402.379 106.621 L
404.5 107.5 L
406.621 106.621 L
407.5 104.5 L
S
GR
GS
0 0.447 0.741 RC
2 setlinecap
10.0 ML
2 LW
N
413.5 113.5 M
412.621 111.379 L
410.5 110.5 L
408.379 111.379 L
407.5 113.5 L
408.379 115.621 L
410.5 116.5 L
412.621 115.621 L
413.5 113.5 L
S
GR
GS
0 0.447 0.741 RC
2 setlinecap
10.0 ML
2 LW
N
419.5 123.5 M
418.621 121.379 L
416.5 120.5 L
414.379 121.379 L
413.5 123.5 L
414.379 125.621 L
416.5 126.5 L
418.621 125.621 L
419.5 123.5 L
S
GR
GS
0 0.447 0.741 RC
2 setlinecap
10.0 ML
2 LW
N
425.5 132.5 M
424.621 130.379 L
422.5 129.5 L
420.379 130.379 L
419.5 132.5 L
420.379 134.621 L
422.5 135.5 L
424.621 134.621 L
425.5 132.5 L
S
GR
GS
0 0.447 0.741 RC
2 setlinecap
10.0 ML
2 LW
N
430.5 143.5 M
429.621 141.379 L
427.5 140.5 L
425.379 141.379 L
424.5 143.5 L
425.379 145.621 L
427.5 146.5 L
429.621 145.621 L
430.5 143.5 L
S
GR
GS
0 0.447 0.741 RC
2 setlinecap
10.0 ML
2 LW
N
435.5 153.5 M
434.621 151.379 L
432.5 150.5 L
430.379 151.379 L
429.5 153.5 L
430.379 155.621 L
432.5 156.5 L
434.621 155.621 L
435.5 153.5 L
S
GR
GS
0 0.447 0.741 RC
2 setlinecap
10.0 ML
2 LW
N
439.5 164.5 M
438.621 162.379 L
436.5 161.5 L
434.379 162.379 L
433.5 164.5 L
434.379 166.621 L
436.5 167.5 L
438.621 166.621 L
439.5 164.5 L
S
GR
GS
0 0.447 0.741 RC
2 setlinecap
10.0 ML
2 LW
N
444.5 174.5 M
443.621 172.379 L
441.5 171.5 L
439.379 172.379 L
438.5 174.5 L
439.379 176.621 L
441.5 177.5 L
443.621 176.621 L
444.5 174.5 L
S
GR
GS
0 0.447 0.741 RC
2 setlinecap
10.0 ML
2 LW
N
448.5 185.5 M
447.621 183.379 L
445.5 182.5 L
443.379 183.379 L
442.5 185.5 L
443.379 187.621 L
445.5 188.5 L
447.621 187.621 L
448.5 185.5 L
S
GR
GS
0 0.447 0.741 RC
2 setlinecap
10.0 ML
2 LW
N
452.5 196.5 M
451.621 194.379 L
449.5 193.5 L
447.379 194.379 L
446.5 196.5 L
447.379 198.621 L
449.5 199.5 L
451.621 198.621 L
452.5 196.5 L
S
GR
GS
0 0.447 0.741 RC
2 setlinecap
10.0 ML
2 LW
N
456.5 207.5 M
455.621 205.379 L
453.5 204.5 L
451.379 205.379 L
450.5 207.5 L
451.379 209.621 L
453.5 210.5 L
455.621 209.621 L
456.5 207.5 L
S
GR
GS
0 0.447 0.741 RC
2 setlinecap
10.0 ML
2 LW
N
460.5 218.5 M
459.621 216.379 L
457.5 215.5 L
455.379 216.379 L
454.5 218.5 L
455.379 220.621 L
457.5 221.5 L
459.621 220.621 L
460.5 218.5 L
S
GR
GS
0 0.447 0.741 RC
2 setlinecap
10.0 ML
2 LW
N
464.5 229.5 M
463.621 227.379 L
461.5 226.5 L
459.379 227.379 L
458.5 229.5 L
459.379 231.621 L
461.5 232.5 L
463.621 231.621 L
464.5 229.5 L
S
GR
GS
0 0.447 0.741 RC
2 setlinecap
10.0 ML
2 LW
N
467.5 240.5 M
466.621 238.379 L
464.5 237.5 L
462.379 238.379 L
461.5 240.5 L
462.379 242.621 L
464.5 243.5 L
466.621 242.621 L
467.5 240.5 L
S
GR
GS
0 0.447 0.741 RC
2 setlinecap
10.0 ML
2 LW
N
471.5 251.5 M
470.621 249.379 L
468.5 248.5 L
466.379 249.379 L
465.5 251.5 L
466.379 253.621 L
468.5 254.5 L
470.621 253.621 L
471.5 251.5 L
S
GR
GS
0 0.447 0.741 RC
2 setlinecap
10.0 ML
2 LW
N
474.5 262.5 M
473.621 260.379 L
471.5 259.5 L
469.379 260.379 L
468.5 262.5 L
469.379 264.621 L
471.5 265.5 L
473.621 264.621 L
474.5 262.5 L
S
GR
GS
0 0.447 0.741 RC
2 setlinecap
10.0 ML
2 LW
N
477.5 272.5 M
476.621 270.379 L
474.5 269.5 L
472.379 270.379 L
471.5 272.5 L
472.379 274.621 L
474.5 275.5 L
476.621 274.621 L
477.5 272.5 L
S
GR
GS
0 0.447 0.741 RC
2 setlinecap
10.0 ML
2 LW
N
480.5 282.5 M
479.621 280.379 L
477.5 279.5 L
475.379 280.379 L
474.5 282.5 L
475.379 284.621 L
477.5 285.5 L
479.621 284.621 L
480.5 282.5 L
S
GR
GS
0 0.447 0.741 RC
2 setlinecap
10.0 ML
2 LW
N
483.5 292.5 M
482.621 290.379 L
480.5 289.5 L
478.379 290.379 L
477.5 292.5 L
478.379 294.621 L
480.5 295.5 L
482.621 294.621 L
483.5 292.5 L
S
GR
GS
0 0.447 0.741 RC
2 setlinecap
10.0 ML
2 LW
N
486.5 302.5 M
485.621 300.379 L
483.5 299.5 L
481.379 300.379 L
480.5 302.5 L
481.379 304.621 L
483.5 305.5 L
485.621 304.621 L
486.5 302.5 L
S
GR
GS
0 0.447 0.741 RC
2 setlinecap
10.0 ML
2 LW
N
489.5 311.5 M
488.621 309.379 L
486.5 308.5 L
484.379 309.379 L
483.5 311.5 L
484.379 313.621 L
486.5 314.5 L
488.621 313.621 L
489.5 311.5 L
S
GR
GS
0 0.447 0.741 RC
2 setlinecap
10.0 ML
2 LW
N
492.5 320.5 M
491.621 318.379 L
489.5 317.5 L
487.379 318.379 L
486.5 320.5 L
487.379 322.621 L
489.5 323.5 L
491.621 322.621 L
492.5 320.5 L
S
GR
GS
0 0.447 0.741 RC
2 setlinecap
10.0 ML
2 LW
N
494.5 328.5 M
493.621 326.379 L
491.5 325.5 L
489.379 326.379 L
488.5 328.5 L
489.379 330.621 L
491.5 331.5 L
493.621 330.621 L
494.5 328.5 L
S
GR
GS
0 0.447 0.741 RC
2 setlinecap
10.0 ML
2 LW
N
497.5 336.5 M
496.621 334.379 L
494.5 333.5 L
492.379 334.379 L
491.5 336.5 L
492.379 338.621 L
494.5 339.5 L
496.621 338.621 L
497.5 336.5 L
S
GR
GS
0 0.447 0.741 RC
2 setlinecap
10.0 ML
2 LW
N
499.5 343.5 M
498.621 341.379 L
496.5 340.5 L
494.379 341.379 L
493.5 343.5 L
494.379 345.621 L
496.5 346.5 L
498.621 345.621 L
499.5 343.5 L
S
GR
GS
0 0.447 0.741 RC
2 setlinecap
10.0 ML
2 LW
N
502.5 350.5 M
501.621 348.379 L
499.5 347.5 L
497.379 348.379 L
496.5 350.5 L
497.379 352.621 L
499.5 353.5 L
501.621 352.621 L
502.5 350.5 L
S
GR
GS
0 0.447 0.741 RC
2 setlinecap
10.0 ML
2 LW
N
504.5 356.5 M
503.621 354.379 L
501.5 353.5 L
499.379 354.379 L
498.5 356.5 L
499.379 358.621 L
501.5 359.5 L
503.621 358.621 L
504.5 356.5 L
S
GR
GS
0 0.447 0.741 RC
2 setlinecap
10.0 ML
2 LW
N
507.5 362.5 M
506.621 360.379 L
504.5 359.5 L
502.379 360.379 L
501.5 362.5 L
502.379 364.621 L
504.5 365.5 L
506.621 364.621 L
507.5 362.5 L
S
GR
GS
0 0.447 0.741 RC
2 setlinecap
10.0 ML
2 LW
N
509.5 367.5 M
508.621 365.379 L
506.5 364.5 L
504.379 365.379 L
503.5 367.5 L
504.379 369.621 L
506.5 370.5 L
508.621 369.621 L
509.5 367.5 L
S
GR
GS
0 0.447 0.741 RC
2 setlinecap
10.0 ML
2 LW
N
511.5 371.5 M
510.621 369.379 L
508.5 368.5 L
506.379 369.379 L
505.5 371.5 L
506.379 373.621 L
508.5 374.5 L
510.621 373.621 L
511.5 371.5 L
S
GR
GS
0 0.447 0.741 RC
2 setlinecap
10.0 ML
2 LW
N
513.5 375.5 M
512.621 373.379 L
510.5 372.5 L
508.379 373.379 L
507.5 375.5 L
508.379 377.621 L
510.5 378.5 L
512.621 377.621 L
513.5 375.5 L
S
GR
GS
0 0.447 0.741 RC
2 setlinecap
10.0 ML
2 LW
N
515.5 378.5 M
514.621 376.379 L
512.5 375.5 L
510.379 376.379 L
509.5 378.5 L
510.379 380.621 L
512.5 381.5 L
514.621 380.621 L
515.5 378.5 L
S
GR
GS
0 0.447 0.741 RC
2 setlinecap
10.0 ML
2 LW
N
518.5 380.5 M
517.621 378.379 L
515.5 377.5 L
513.379 378.379 L
512.5 380.5 L
513.379 382.621 L
515.5 383.5 L
517.621 382.621 L
518.5 380.5 L
S
GR
GS
0 0.447 0.741 RC
2 setlinecap
10.0 ML
2 LW
N
520.5 382.5 M
519.621 380.379 L
517.5 379.5 L
515.379 380.379 L
514.5 382.5 L
515.379 384.621 L
517.5 385.5 L
519.621 384.621 L
520.5 382.5 L
S
GR
GS
0 0.447 0.741 RC
2 setlinecap
10.0 ML
2 LW
N
522.5 383.5 M
521.621 381.379 L
519.5 380.5 L
517.379 381.379 L
516.5 383.5 L
517.379 385.621 L
519.5 386.5 L
521.621 385.621 L
522.5 383.5 L
S
GR
GS
0 0.447 0.741 RC
2 setlinecap
10.0 ML
2 LW
N
524.5 383.5 M
523.621 381.379 L
521.5 380.5 L
519.379 381.379 L
518.5 383.5 L
519.379 385.621 L
521.5 386.5 L
523.621 385.621 L
524.5 383.5 L
S
GR
GS
1 0 0 RC
[8 8] 0 setdash
2 LJ
2 LW
N
101.253 32 M
176.546 32.558 L
233.248 34.127 L
277.462 37.506 L
306.89 42.188 L
328.798 48.01 L
346.142 54.815 L
360.42 62.455 L
377.926 75.212 L
404.341 104.352 L
423.9 136.439 L
433.818 156.941 L
442.276 176.883 L
449.586 195.965 L
455.971 213.989 L
461.598 230.832 L
466.591 246.434 L
473.136 267.592 L
480.581 292.163 L
486.656 312.063 L
491.676 327.956 L
497.76 345.91 L
504.113 362.218 L
510.488 374.886 L
517.621 382.979 L
S
GR
GS
1 0 0 RC
2 setlinecap
10.0 ML
2 LW
N
99 34 M
104 29 L
S
GR
GS
1 0 0 RC
2 setlinecap
10.0 ML
2 LW
N
99 29 M
104 34 L
S
GR
GS
1 0 0 RC
2 setlinecap
10.0 ML
2 LW
N
174 35 M
179 30 L
S
GR
GS
1 0 0 RC
2 setlinecap
10.0 ML
2 LW
N
174 30 M
179 35 L
S
GR
GS
1 0 0 RC
2 setlinecap
10.0 ML
2 LW
N
231 37 M
236 32 L
S
GR
GS
1 0 0 RC
2 setlinecap
10.0 ML
2 LW
N
231 32 M
236 37 L
S
GR
GS
1 0 0 RC
2 setlinecap
10.0 ML
2 LW
N
275 40 M
280 35 L
S
GR
GS
1 0 0 RC
2 setlinecap
10.0 ML
2 LW
N
275 35 M
280 40 L
S
GR
GS
1 0 0 RC
2 setlinecap
10.0 ML
2 LW
N
304 45 M
309 40 L
S
GR
GS
1 0 0 RC
2 setlinecap
10.0 ML
2 LW
N
304 40 M
309 45 L
S
GR
GS
1 0 0 RC
2 setlinecap
10.0 ML
2 LW
N
326 51 M
331 46 L
S
GR
GS
1 0 0 RC
2 setlinecap
10.0 ML
2 LW
N
326 46 M
331 51 L
S
GR
GS
1 0 0 RC
2 setlinecap
10.0 ML
2 LW
N
344 57 M
349 52 L
S
GR
GS
1 0 0 RC
2 setlinecap
10.0 ML
2 LW
N
344 52 M
349 57 L
S
GR
GS
1 0 0 RC
2 setlinecap
10.0 ML
2 LW
N
358 65 M
363 60 L
S
GR
GS
1 0 0 RC
2 setlinecap
10.0 ML
2 LW
N
358 60 M
363 65 L
S
GR
GS
1 0 0 RC
2 setlinecap
10.0 ML
2 LW
N
375 78 M
380 73 L
S
GR
GS
1 0 0 RC
2 setlinecap
10.0 ML
2 LW
N
375 73 M
380 78 L
S
GR
GS
1 0 0 RC
2 setlinecap
10.0 ML
2 LW
N
402 107 M
407 102 L
S
GR
GS
1 0 0 RC
2 setlinecap
10.0 ML
2 LW
N
402 102 M
407 107 L
S
GR
GS
1 0 0 RC
2 setlinecap
10.0 ML
2 LW
N
421 139 M
426 134 L
S
GR
GS
1 0 0 RC
2 setlinecap
10.0 ML
2 LW
N
421 134 M
426 139 L
S
GR
GS
1 0 0 RC
2 setlinecap
10.0 ML
2 LW
N
431 159 M
436 154 L
S
GR
GS
1 0 0 RC
2 setlinecap
10.0 ML
2 LW
N
431 154 M
436 159 L
S
GR
GS
1 0 0 RC
2 setlinecap
10.0 ML
2 LW
N
440 179 M
445 174 L
S
GR
GS
1 0 0 RC
2 setlinecap
10.0 ML
2 LW
N
440 174 M
445 179 L
S
GR
GS
1 0 0 RC
2 setlinecap
10.0 ML
2 LW
N
447 198 M
452 193 L
S
GR
GS
1 0 0 RC
2 setlinecap
10.0 ML
2 LW
N
447 193 M
452 198 L
S
GR
GS
1 0 0 RC
2 setlinecap
10.0 ML
2 LW
N
453 216 M
458 211 L
S
GR
GS
1 0 0 RC
2 setlinecap
10.0 ML
2 LW
N
453 211 M
458 216 L
S
GR
GS
1 0 0 RC
2 setlinecap
10.0 ML
2 LW
N
459 233 M
464 228 L
S
GR
GS
1 0 0 RC
2 setlinecap
10.0 ML
2 LW
N
459 228 M
464 233 L
S
GR
GS
1 0 0 RC
2 setlinecap
10.0 ML
2 LW
N
464 249 M
469 244 L
S
GR
GS
1 0 0 RC
2 setlinecap
10.0 ML
2 LW
N
464 244 M
469 249 L
S
GR
GS
1 0 0 RC
2 setlinecap
10.0 ML
2 LW
N
471 270 M
476 265 L
S
GR
GS
1 0 0 RC
2 setlinecap
10.0 ML
2 LW
N
471 265 M
476 270 L
S
GR
GS
1 0 0 RC
2 setlinecap
10.0 ML
2 LW
N
478 295 M
483 290 L
S
GR
GS
1 0 0 RC
2 setlinecap
10.0 ML
2 LW
N
478 290 M
483 295 L
S
GR
GS
1 0 0 RC
2 setlinecap
10.0 ML
2 LW
N
484 315 M
489 310 L
S
GR
GS
1 0 0 RC
2 setlinecap
10.0 ML
2 LW
N
484 310 M
489 315 L
S
GR
GS
1 0 0 RC
2 setlinecap
10.0 ML
2 LW
N
489 330 M
494 325 L
S
GR
GS
1 0 0 RC
2 setlinecap
10.0 ML
2 LW
N
489 325 M
494 330 L
S
GR
GS
1 0 0 RC
2 setlinecap
10.0 ML
2 LW
N
495 348 M
500 343 L
S
GR
GS
1 0 0 RC
2 setlinecap
10.0 ML
2 LW
N
495 343 M
500 348 L
S
GR
GS
1 0 0 RC
2 setlinecap
10.0 ML
2 LW
N
502 365 M
507 360 L
S
GR
GS
1 0 0 RC
2 setlinecap
10.0 ML
2 LW
N
502 360 M
507 365 L
S
GR
GS
1 0 0 RC
2 setlinecap
10.0 ML
2 LW
N
508 377 M
513 372 L
S
GR
GS
1 0 0 RC
2 setlinecap
10.0 ML
2 LW
N
508 372 M
513 377 L
S
GR
GS
1 0 0 RC
2 setlinecap
10.0 ML
2 LW
N
515 385 M
520 380 L
S
GR
GS
1 0 0 RC
2 setlinecap
10.0 ML
2 LW
N
515 380 M
520 385 L
S
GR
GS
1 GC
N
392 69 M
392 42 L
511 42 L
511 69 L
cp
f
GR
GS
[1 0 0 1 430.98944 48.87273] CT
/Helvetica 11 F
GS
[1 0 0 1 0 0] CT
0 3.47 moveto 
1 -1 scale
(Computed error) t 
GR
GR
GS
0 0.447 0.741 RC
2 setlinecap
10.0 ML
2 LW
N
397.998 48.873 M
427.99 48.873 L
S
GR
GS
0 0.447 0.741 RC
2 setlinecap
10.0 ML
2 LW
N
415.5 48.5 M
414.621 46.379 L
412.5 45.5 L
410.379 46.379 L
409.5 48.5 L
410.379 50.621 L
412.5 51.5 L
414.621 50.621 L
415.5 48.5 L
S
GR
GS
[1 0 0 1 430 65] CT
/Helvetica 10 F
GS
[1 0 0 1 0 0] CT
0 0 moveto 
1 -1 scale
(n) t 
GR
GR
GS
[1 0 0 1 436 60] CT
/Helvetica 8 F
GS
[1 0 0 1 0 0] CT
0 0 moveto 
1 -1 scale
(-2) t 
GR
GR
GS
1 0 0 RC
[8 8] 0 setdash
2 LJ
2 LW
N
397.998 60.655 M
427.99 60.655 L
S
GR
GS
1 0 0 RC
2 setlinecap
10.0 ML
2 LW
N
410 63 M
415 58 L
S
GR
GS
1 0 0 RC
2 setlinecap
10.0 ML
2 LW
N
410 58 M
415 63 L
S
GR
GS
0.149 GC
2 setlinecap
10.0 ML
N
392 69 M
392 42 L
511 42 L
511 69 L
392 69 L
S
GR
%%Trailer
%%BoundingBox: 38 15 530 404
%%Pages: 1
%%EOF
