%!PS-Adobe-3.0 EPSF-3.0
%%Creator: (MATLAB, The Mathworks, Inc. Version 8.4.0.150421 \(R2014b\). Operating System: Mac OS X)
%%Title: ./grid.eps
%%CreationDate: 2015-11-30T21:36:28
%%Pages: (atend)
%%BoundingBox: (atend)
%%LanguageLevel: 2
%%EndComments
%%BeginProlog
%%BeginResource: procset (Apache XML Graphics Std ProcSet) 1.2 0
%%Version: 1.2 0
%%Copyright: (Copyright 2001-2003,2010 The Apache Software Foundation. License terms: http://www.apache.org/licenses/LICENSE-2.0)
/bd{bind def}bind def
/ld{load def}bd
/GR/grestore ld
/M/moveto ld
/LJ/setlinejoin ld
/C/curveto ld
/f/fill ld
/LW/setlinewidth ld
/GC/setgray ld
/t/show ld
/N/newpath ld
/CT/concat ld
/cp/closepath ld
/S/stroke ld
/L/lineto ld
/CC/setcmykcolor ld
/A/ashow ld
/GS/gsave ld
/RC/setrgbcolor ld
/RM/rmoveto ld
/ML/setmiterlimit ld
/re {4 2 roll M
1 index 0 rlineto
0 exch rlineto
neg 0 rlineto
cp } bd
/_ctm matrix def
/_tm matrix def
/BT { _ctm currentmatrix pop matrix _tm copy pop 0 0 moveto } bd
/ET { _ctm setmatrix } bd
/iTm { _ctm setmatrix _tm concat } bd
/Tm { _tm astore pop iTm 0 0 moveto } bd
/ux 0.0 def
/uy 0.0 def
/F {
  /Tp exch def
  /Tf exch def
  Tf findfont Tp scalefont setfont
  /cf Tf def  /cs Tp def
} bd
/ULS {currentpoint /uy exch def /ux exch def} bd
/ULE {
  /Tcx currentpoint pop def
  gsave
  newpath
  cf findfont cs scalefont dup
  /FontMatrix get 0 get /Ts exch def /FontInfo get dup
  /UnderlinePosition get Ts mul /To exch def
  /UnderlineThickness get Ts mul /Tt exch def
  ux uy To add moveto  Tcx uy To add lineto
  Tt setlinewidth stroke
  grestore
} bd
/OLE {
  /Tcx currentpoint pop def
  gsave
  newpath
  cf findfont cs scalefont dup
  /FontMatrix get 0 get /Ts exch def /FontInfo get dup
  /UnderlinePosition get Ts mul /To exch def
  /UnderlineThickness get Ts mul /Tt exch def
  ux uy To add cs add moveto Tcx uy To add cs add lineto
  Tt setlinewidth stroke
  grestore
} bd
/SOE {
  /Tcx currentpoint pop def
  gsave
  newpath
  cf findfont cs scalefont dup
  /FontMatrix get 0 get /Ts exch def /FontInfo get dup
  /UnderlinePosition get Ts mul /To exch def
  /UnderlineThickness get Ts mul /Tt exch def
  ux uy To add cs 10 mul 26 idiv add moveto Tcx uy To add cs 10 mul 26 idiv add lineto
  Tt setlinewidth stroke
  grestore
} bd
/QT {
/Y22 exch store
/X22 exch store
/Y21 exch store
/X21 exch store
currentpoint
/Y21 load 2 mul add 3 div exch
/X21 load 2 mul add 3 div exch
/X21 load 2 mul /X22 load add 3 div
/Y21 load 2 mul /Y22 load add 3 div
/X22 load /Y22 load curveto
} bd
/SSPD {
dup length /d exch dict def
{
/v exch def
/k exch def
currentpagedevice k known {
/cpdv currentpagedevice k get def
v cpdv ne {
/upd false def
/nullv v type /nulltype eq def
/nullcpdv cpdv type /nulltype eq def
nullv nullcpdv or
{
/upd true def
} {
/sametype v type cpdv type eq def
sametype {
v type /arraytype eq {
/vlen v length def
/cpdvlen cpdv length def
vlen cpdvlen eq {
0 1 vlen 1 sub {
/i exch def
/obj v i get def
/cpdobj cpdv i get def
obj cpdobj ne {
/upd true def
exit
} if
} for
} {
/upd true def
} ifelse
} {
v type /dicttype eq {
v {
/dv exch def
/dk exch def
/cpddv cpdv dk get def
dv cpddv ne {
/upd true def
exit
} if
} forall
} {
/upd true def
} ifelse
} ifelse
} if
} ifelse
upd true eq {
d k v put
} if
} if
} if
} forall
d length 0 gt {
d setpagedevice
} if
} bd
%%EndResource
%%BeginResource: procset (Apache XML Graphics EPS ProcSet) 1.0 0
%%Version: 1.0 0
%%Copyright: (Copyright 2002-2003 The Apache Software Foundation. License terms: http://www.apache.org/licenses/LICENSE-2.0)
/BeginEPSF { %def
/b4_Inc_state save def         % Save state for cleanup
/dict_count countdictstack def % Count objects on dict stack
/op_count count 1 sub def      % Count objects on operand stack
userdict begin                 % Push userdict on dict stack
/showpage { } def              % Redefine showpage, { } = null proc
0 setgray 0 setlinecap         % Prepare graphics state
1 setlinewidth 0 setlinejoin
10 setmiterlimit [ ] 0 setdash newpath
/languagelevel where           % If level not equal to 1 then
{pop languagelevel             % set strokeadjust and
1 ne                           % overprint to their defaults.
{false setstrokeadjust false setoverprint
} if
} if
} bd
/EndEPSF { %def
count op_count sub {pop} repeat            % Clean up stacks
countdictstack dict_count sub {end} repeat
b4_Inc_state restore
} bd
%%EndResource
%FOPBeginFontDict
%%IncludeResource: font Courier-Bold
%%IncludeResource: font Helvetica
%%IncludeResource: font Courier-BoldOblique
%%IncludeResource: font Courier-Oblique
%%IncludeResource: font Times-Roman
%%IncludeResource: font Helvetica-BoldOblique
%%IncludeResource: font Helvetica-Bold
%%IncludeResource: font Helvetica-Oblique
%%IncludeResource: font Times-BoldItalic
%%IncludeResource: font Courier
%%IncludeResource: font Times-Italic
%%IncludeResource: font Times-Bold
%%IncludeResource: font Symbol
%%IncludeResource: font ZapfDingbats
%FOPEndFontDict
%%BeginResource: encoding WinAnsiEncoding
/WinAnsiEncoding [
/.notdef /.notdef /.notdef /.notdef /.notdef
/.notdef /.notdef /.notdef /.notdef /.notdef
/.notdef /.notdef /.notdef /.notdef /.notdef
/.notdef /.notdef /.notdef /.notdef /.notdef
/.notdef /.notdef /.notdef /.notdef /.notdef
/.notdef /.notdef /.notdef /.notdef /.notdef
/.notdef /.notdef /space /exclam /quotedbl
/numbersign /dollar /percent /ampersand /quotesingle
/parenleft /parenright /asterisk /plus /comma
/hyphen /period /slash /zero /one
/two /three /four /five /six
/seven /eight /nine /colon /semicolon
/less /equal /greater /question /at
/A /B /C /D /E
/F /G /H /I /J
/K /L /M /N /O
/P /Q /R /S /T
/U /V /W /X /Y
/Z /bracketleft /backslash /bracketright /asciicircum
/underscore /quoteleft /a /b /c
/d /e /f /g /h
/i /j /k /l /m
/n /o /p /q /r
/s /t /u /v /w
/x /y /z /braceleft /bar
/braceright /asciitilde /bullet /Euro /bullet
/quotesinglbase /florin /quotedblbase /ellipsis /dagger
/daggerdbl /circumflex /perthousand /Scaron /guilsinglleft
/OE /bullet /Zcaron /bullet /bullet
/quoteleft /quoteright /quotedblleft /quotedblright /bullet
/endash /emdash /asciitilde /trademark /scaron
/guilsinglright /oe /bullet /zcaron /Ydieresis
/space /exclamdown /cent /sterling /currency
/yen /brokenbar /section /dieresis /copyright
/ordfeminine /guillemotleft /logicalnot /sfthyphen /registered
/macron /degree /plusminus /twosuperior /threesuperior
/acute /mu /paragraph /middot /cedilla
/onesuperior /ordmasculine /guillemotright /onequarter /onehalf
/threequarters /questiondown /Agrave /Aacute /Acircumflex
/Atilde /Adieresis /Aring /AE /Ccedilla
/Egrave /Eacute /Ecircumflex /Edieresis /Igrave
/Iacute /Icircumflex /Idieresis /Eth /Ntilde
/Ograve /Oacute /Ocircumflex /Otilde /Odieresis
/multiply /Oslash /Ugrave /Uacute /Ucircumflex
/Udieresis /Yacute /Thorn /germandbls /agrave
/aacute /acircumflex /atilde /adieresis /aring
/ae /ccedilla /egrave /eacute /ecircumflex
/edieresis /igrave /iacute /icircumflex /idieresis
/eth /ntilde /ograve /oacute /ocircumflex
/otilde /odieresis /divide /oslash /ugrave
/uacute /ucircumflex /udieresis /yacute /thorn
/ydieresis
] def
%%EndResource
%FOPBeginFontReencode
/Courier-Bold findfont
dup length dict begin
  {1 index /FID ne {def} {pop pop} ifelse} forall
  /Encoding WinAnsiEncoding def
  currentdict
end
/Courier-Bold exch definefont pop
/Helvetica findfont
dup length dict begin
  {1 index /FID ne {def} {pop pop} ifelse} forall
  /Encoding WinAnsiEncoding def
  currentdict
end
/Helvetica exch definefont pop
/Courier-BoldOblique findfont
dup length dict begin
  {1 index /FID ne {def} {pop pop} ifelse} forall
  /Encoding WinAnsiEncoding def
  currentdict
end
/Courier-BoldOblique exch definefont pop
/Courier-Oblique findfont
dup length dict begin
  {1 index /FID ne {def} {pop pop} ifelse} forall
  /Encoding WinAnsiEncoding def
  currentdict
end
/Courier-Oblique exch definefont pop
/Times-Roman findfont
dup length dict begin
  {1 index /FID ne {def} {pop pop} ifelse} forall
  /Encoding WinAnsiEncoding def
  currentdict
end
/Times-Roman exch definefont pop
/Helvetica-BoldOblique findfont
dup length dict begin
  {1 index /FID ne {def} {pop pop} ifelse} forall
  /Encoding WinAnsiEncoding def
  currentdict
end
/Helvetica-BoldOblique exch definefont pop
/Helvetica-Bold findfont
dup length dict begin
  {1 index /FID ne {def} {pop pop} ifelse} forall
  /Encoding WinAnsiEncoding def
  currentdict
end
/Helvetica-Bold exch definefont pop
/Helvetica-Oblique findfont
dup length dict begin
  {1 index /FID ne {def} {pop pop} ifelse} forall
  /Encoding WinAnsiEncoding def
  currentdict
end
/Helvetica-Oblique exch definefont pop
/Times-BoldItalic findfont
dup length dict begin
  {1 index /FID ne {def} {pop pop} ifelse} forall
  /Encoding WinAnsiEncoding def
  currentdict
end
/Times-BoldItalic exch definefont pop
/Courier findfont
dup length dict begin
  {1 index /FID ne {def} {pop pop} ifelse} forall
  /Encoding WinAnsiEncoding def
  currentdict
end
/Courier exch definefont pop
/Times-Italic findfont
dup length dict begin
  {1 index /FID ne {def} {pop pop} ifelse} forall
  /Encoding WinAnsiEncoding def
  currentdict
end
/Times-Italic exch definefont pop
/Times-Bold findfont
dup length dict begin
  {1 index /FID ne {def} {pop pop} ifelse} forall
  /Encoding WinAnsiEncoding def
  currentdict
end
/Times-Bold exch definefont pop
%FOPEndFontReencode
%%EndProlog
%%Page: 1 1
%%PageBoundingBox: 0 0 576 432
%%BeginPageSetup
[1 0 0 -1 0 432] CT
%%EndPageSetup
GS
1 GC
N
0 0 576 432 re
f
GR
GS
1 GC
N
0 0 576 432 re
f
GR
GS
1 GC
N
75 383.882 M
521 383.882 L
521 32.118 L
75 32.118 L
cp
f
GR
GS
0.149 GC
2 setlinecap
10.0 ML
N
75 383.882 M
521 383.882 L
S
GR
GS
0.149 GC
2 setlinecap
10.0 ML
N
75 32.118 M
521 32.118 L
S
GR
GS
0.149 GC
2 setlinecap
10.0 ML
N
93.568 383.882 M
93.568 379.422 L
S
GR
GS
0.149 GC
2 setlinecap
10.0 ML
N
93.568 32.118 M
93.568 36.578 L
S
GR
GS
0.149 GC
2 setlinecap
10.0 ML
N
150.667 383.882 M
150.667 379.422 L
S
GR
GS
0.149 GC
2 setlinecap
10.0 ML
N
150.667 32.118 M
150.667 36.578 L
S
GR
GS
0.149 GC
2 setlinecap
10.0 ML
N
207.766 383.882 M
207.766 379.422 L
S
GR
GS
0.149 GC
2 setlinecap
10.0 ML
N
207.766 32.118 M
207.766 36.578 L
S
GR
GS
0.149 GC
2 setlinecap
10.0 ML
N
264.865 383.882 M
264.865 379.422 L
S
GR
GS
0.149 GC
2 setlinecap
10.0 ML
N
264.865 32.118 M
264.865 36.578 L
S
GR
GS
0.149 GC
2 setlinecap
10.0 ML
N
321.964 383.882 M
321.964 379.422 L
S
GR
GS
0.149 GC
2 setlinecap
10.0 ML
N
321.964 32.118 M
321.964 36.578 L
S
GR
GS
0.149 GC
2 setlinecap
10.0 ML
N
379.063 383.882 M
379.063 379.422 L
S
GR
GS
0.149 GC
2 setlinecap
10.0 ML
N
379.063 32.118 M
379.063 36.578 L
S
GR
GS
0.149 GC
2 setlinecap
10.0 ML
N
436.162 383.882 M
436.162 379.422 L
S
GR
GS
0.149 GC
2 setlinecap
10.0 ML
N
436.162 32.118 M
436.162 36.578 L
S
GR
GS
0.149 GC
2 setlinecap
10.0 ML
N
493.262 383.882 M
493.262 379.422 L
S
GR
GS
0.149 GC
2 setlinecap
10.0 ML
N
493.262 32.118 M
493.262 36.578 L
S
GR
GS
[1 0 0 1 93.56822 387.88226] CT
0.149 GC
/Helvetica 10 F
GS
[1 0 0 1 0 0] CT
-4.446 7.7 moveto 
1 -1 scale
(-2) t 
GR
GR
GS
[1 0 0 1 150.66727 387.88226] CT
0.149 GC
/Helvetica 10 F
GS
[1 0 0 1 0 0] CT
-4.446 7.7 moveto 
1 -1 scale
(-1) t 
GR
GR
GS
[1 0 0 1 207.76631 387.88226] CT
0.149 GC
/Helvetica 10 F
GS
[1 0 0 1 0 0] CT
-2.781 7.7 moveto 
1 -1 scale
(0) t 
GR
GR
GS
[1 0 0 1 264.86536 387.88226] CT
0.149 GC
/Helvetica 10 F
GS
[1 0 0 1 0 0] CT
-2.781 7.7 moveto 
1 -1 scale
(1) t 
GR
GR
GS
[1 0 0 1 321.96439 387.88226] CT
0.149 GC
/Helvetica 10 F
GS
[1 0 0 1 0 0] CT
-2.781 7.7 moveto 
1 -1 scale
(2) t 
GR
GR
GS
[1 0 0 1 379.06345 387.88226] CT
0.149 GC
/Helvetica 10 F
GS
[1 0 0 1 0 0] CT
-2.781 7.7 moveto 
1 -1 scale
(3) t 
GR
GR
GS
[1 0 0 1 436.16248 387.88226] CT
0.149 GC
/Helvetica 10 F
GS
[1 0 0 1 0 0] CT
-2.781 7.7 moveto 
1 -1 scale
(4) t 
GR
GR
GS
[1 0 0 1 493.26151 387.88226] CT
0.149 GC
/Helvetica 10 F
GS
[1 0 0 1 0 0] CT
-2.781 7.7 moveto 
1 -1 scale
(5) t 
GR
GR
GS
0.149 GC
2 setlinecap
10.0 ML
N
75 383.882 M
75 32.118 L
S
GR
GS
0.149 GC
2 setlinecap
10.0 ML
N
521 383.882 M
521 32.118 L
S
GR
GS
0.149 GC
2 setlinecap
10.0 ML
N
75 383.882 M
79.46 383.882 L
S
GR
GS
0.149 GC
2 setlinecap
10.0 ML
N
521 383.882 M
516.54 383.882 L
S
GR
GS
0.149 GC
2 setlinecap
10.0 ML
N
75 326.783 M
79.46 326.783 L
S
GR
GS
0.149 GC
2 setlinecap
10.0 ML
N
521 326.783 M
516.54 326.783 L
S
GR
GS
0.149 GC
2 setlinecap
10.0 ML
N
75 269.684 M
79.46 269.684 L
S
GR
GS
0.149 GC
2 setlinecap
10.0 ML
N
521 269.684 M
516.54 269.684 L
S
GR
GS
0.149 GC
2 setlinecap
10.0 ML
N
75 212.585 M
79.46 212.585 L
S
GR
GS
0.149 GC
2 setlinecap
10.0 ML
N
521 212.585 M
516.54 212.585 L
S
GR
GS
0.149 GC
2 setlinecap
10.0 ML
N
75 155.486 M
79.46 155.486 L
S
GR
GS
0.149 GC
2 setlinecap
10.0 ML
N
521 155.486 M
516.54 155.486 L
S
GR
GS
0.149 GC
2 setlinecap
10.0 ML
N
75 98.387 M
79.46 98.387 L
S
GR
GS
0.149 GC
2 setlinecap
10.0 ML
N
521 98.387 M
516.54 98.387 L
S
GR
GS
0.149 GC
2 setlinecap
10.0 ML
N
75 41.288 M
79.46 41.288 L
S
GR
GS
0.149 GC
2 setlinecap
10.0 ML
N
521 41.288 M
516.54 41.288 L
S
GR
GS
[1 0 0 1 71 383.88226] CT
0.149 GC
/Helvetica 10 F
GS
[1 0 0 1 0 0] CT
-8.892 3.2 moveto 
1 -1 scale
(-3) t 
GR
GR
GS
[1 0 0 1 71 326.7832] CT
0.149 GC
/Helvetica 10 F
GS
[1 0 0 1 0 0] CT
-8.892 3.2 moveto 
1 -1 scale
(-2) t 
GR
GR
GS
[1 0 0 1 71 269.68417] CT
0.149 GC
/Helvetica 10 F
GS
[1 0 0 1 0 0] CT
-8.892 3.2 moveto 
1 -1 scale
(-1) t 
GR
GR
GS
[1 0 0 1 71 212.58513] CT
0.149 GC
/Helvetica 10 F
GS
[1 0 0 1 0 0] CT
-5.562 3.2 moveto 
1 -1 scale
(0) t 
GR
GR
GS
[1 0 0 1 71 155.48608] CT
0.149 GC
/Helvetica 10 F
GS
[1 0 0 1 0 0] CT
-5.562 3.2 moveto 
1 -1 scale
(1) t 
GR
GR
GS
[1 0 0 1 71 98.38705] CT
0.149 GC
/Helvetica 10 F
GS
[1 0 0 1 0 0] CT
-5.562 3.2 moveto 
1 -1 scale
(2) t 
GR
GR
GS
[1 0 0 1 71 41.288] CT
0.149 GC
/Helvetica 10 F
GS
[1 0 0 1 0 0] CT
-5.562 3.2 moveto 
1 -1 scale
(3) t 
GR
GR
GS
2 setlinecap
10.0 ML
N
207.766 269.684 M
210.456 263.904 L
212.701 259.536 L
214.912 257.702 L
217.582 258.763 L
221.067 262.223 L
225.411 266.89 L
230.275 271.222 L
235.013 273.783 L
238.873 273.636 L
241.261 270.599 L
241.975 265.261 L
241.328 258.779 L
240.107 252.522 L
239.355 247.668 L
240.066 244.885 L
242.85 244.174 L
247.703 244.925 L
253.96 246.147 L
260.442 246.793 L
265.78 246.08 L
268.817 243.692 L
268.964 239.832 L
266.404 235.094 L
262.071 230.23 L
257.404 225.886 L
253.944 222.4 L
252.883 219.731 L
254.717 217.52 L
259.085 215.275 L
264.865 212.585 L
270.489 209.298 L
274.388 205.583 L
275.442 201.866 L
273.291 198.657 L
268.435 196.329 L
262.071 194.941 L
255.742 194.169 L
250.894 193.383 L
248.467 191.847 L
248.651 188.981 L
250.865 184.597 L
253.96 179.023 L
256.578 173.058 L
257.549 167.761 L
256.216 164.135 L
252.591 162.803 L
247.293 163.773 L
241.328 166.391 L
235.755 169.487 L
231.371 171.701 L
228.504 171.885 L
226.968 169.457 L
226.183 164.609 L
225.411 158.281 L
224.022 151.916 L
221.694 147.06 L
218.485 144.91 L
214.769 145.963 L
211.053 149.862 L
207.766 155.486 L
S
GR
GS
2 setlinecap
10.0 ML
N
207.766 273.491 M
210.655 267.705 L
213.099 263.321 L
215.508 261.462 L
218.373 262.486 L
222.052 265.9 L
226.587 270.51 L
231.639 274.776 L
236.561 277.26 L
240.601 277.028 L
243.164 273.896 L
244.048 268.454 L
243.566 261.859 L
242.502 255.48 L
241.903 250.497 L
242.758 247.577 L
245.678 246.721 L
250.661 247.321 L
257.04 248.385 L
263.635 248.867 L
269.077 247.983 L
272.209 245.42 L
272.441 241.38 L
269.957 236.458 L
265.691 231.406 L
261.081 226.871 L
257.667 223.192 L
256.643 220.326 L
258.503 217.918 L
262.886 215.474 L
268.672 212.585 L
274.291 209.099 L
278.174 205.185 L
279.201 201.271 L
277.015 197.866 L
272.112 195.344 L
265.691 193.764 L
259.296 192.805 L
254.372 191.835 L
251.859 190.119 L
251.947 187.077 L
254.057 182.523 L
257.04 176.786 L
259.536 170.663 L
260.378 165.214 L
258.908 161.443 L
255.138 159.974 L
249.689 160.815 L
243.566 163.311 L
237.828 166.294 L
233.274 168.404 L
230.232 168.493 L
228.516 165.98 L
227.547 161.055 L
226.587 154.66 L
225.008 148.239 L
222.486 143.337 L
219.081 141.15 L
215.166 142.177 L
211.253 146.061 L
207.766 151.679 L
S
GR
GS
2 setlinecap
10.0 ML
N
207.766 277.297 M
210.854 271.507 L
213.497 267.107 L
216.103 265.221 L
219.165 266.21 L
223.037 269.577 L
227.763 274.13 L
233.003 278.33 L
238.11 280.738 L
242.33 280.419 L
245.067 277.192 L
246.121 271.646 L
245.803 264.938 L
244.898 258.439 L
244.45 253.326 L
245.45 250.269 L
248.507 249.268 L
253.62 249.717 L
260.12 250.622 L
266.827 250.94 L
272.374 249.886 L
275.6 247.148 L
275.919 242.929 L
273.511 237.822 L
269.311 232.582 L
264.758 227.856 L
261.391 223.983 L
260.403 220.922 L
262.288 218.316 L
266.688 215.673 L
272.479 212.585 L
278.092 208.9 L
281.96 204.787 L
282.961 200.675 L
280.738 197.074 L
275.789 194.359 L
269.311 192.588 L
262.85 191.441 L
257.849 190.287 L
255.25 188.391 L
255.244 185.174 L
257.25 180.45 L
260.12 174.548 L
262.495 168.267 L
263.206 162.667 L
261.6 158.752 L
257.685 157.145 L
252.084 157.857 L
245.803 160.232 L
239.901 163.102 L
235.178 165.108 L
231.961 165.101 L
230.065 162.502 L
228.911 157.502 L
227.763 151.04 L
225.993 144.563 L
223.277 139.613 L
219.676 137.39 L
215.564 138.392 L
211.452 142.259 L
207.766 147.873 L
S
GR
GS
2 setlinecap
10.0 ML
N
207.766 281.104 M
211.053 275.308 L
213.895 270.893 L
216.699 268.981 L
219.956 269.933 L
224.022 273.254 L
228.94 277.75 L
234.368 281.884 L
239.658 284.215 L
244.058 283.811 L
246.971 280.489 L
248.194 274.839 L
248.041 268.018 L
247.293 261.397 L
246.997 256.155 L
248.141 252.96 L
251.336 251.816 L
256.578 252.112 L
263.199 252.859 L
270.02 253.013 L
275.67 251.789 L
278.992 248.877 L
279.396 244.477 L
277.065 239.186 L
272.932 233.759 L
268.435 228.841 L
265.114 224.775 L
264.162 221.517 L
266.074 218.714 L
270.489 215.872 L
276.285 212.585 L
281.893 208.7 L
285.745 204.389 L
286.721 200.08 L
284.462 196.283 L
279.466 193.373 L
272.932 191.412 L
266.404 190.076 L
261.327 188.739 L
258.642 186.663 L
258.541 183.271 L
260.442 178.377 L
263.199 172.311 L
265.453 165.871 L
266.035 160.119 L
264.291 156.06 L
260.232 154.316 L
254.48 154.899 L
248.041 157.152 L
241.975 159.909 L
237.081 161.811 L
233.689 161.71 L
231.613 159.025 L
230.275 153.948 L
228.94 147.42 L
226.978 140.886 L
224.068 135.89 L
220.271 133.631 L
215.962 134.606 L
211.651 138.458 L
207.766 144.066 L
S
GR
GS
2 setlinecap
10.0 ML
N
207.766 284.911 M
211.253 279.109 L
214.293 274.679 L
217.294 272.741 L
220.747 273.656 L
225.008 276.931 L
230.116 281.371 L
235.732 285.437 L
241.206 287.693 L
245.786 287.203 L
248.874 283.786 L
250.267 278.031 L
250.278 271.098 L
249.689 264.355 L
249.544 258.984 L
250.833 255.652 L
254.165 254.363 L
259.536 254.508 L
266.279 255.097 L
273.212 255.086 L
278.967 253.693 L
282.384 250.605 L
282.874 246.025 L
280.619 240.551 L
276.552 234.935 L
272.112 229.827 L
268.838 225.566 L
267.922 222.113 L
269.86 219.111 L
274.291 216.072 L
280.092 212.585 L
285.695 208.501 L
289.531 203.991 L
290.481 199.484 L
288.185 195.492 L
283.143 192.388 L
276.552 190.235 L
269.957 188.712 L
264.804 187.19 L
262.034 184.935 L
261.837 181.367 L
263.635 176.304 L
266.279 170.073 L
268.411 163.476 L
268.864 157.572 L
266.983 153.368 L
262.779 151.487 L
256.876 151.94 L
250.278 154.073 L
244.048 156.717 L
238.984 158.514 L
235.417 158.318 L
233.161 155.547 L
231.639 150.394 L
230.116 143.8 L
227.963 137.209 L
224.86 132.166 L
220.867 129.871 L
216.36 130.82 L
211.85 134.657 L
207.766 140.26 L
S
GR
GS
2 setlinecap
10.0 ML
N
207.766 288.717 M
211.452 282.911 L
214.691 278.464 L
217.89 276.501 L
221.539 277.38 L
225.993 280.608 L
231.292 284.991 L
237.096 288.991 L
242.755 291.17 L
247.514 290.594 L
250.777 287.082 L
252.341 281.224 L
252.516 274.177 L
252.084 267.313 L
252.091 261.813 L
253.525 258.344 L
256.994 256.91 L
262.495 256.903 L
269.358 257.334 L
276.405 257.159 L
282.263 255.596 L
285.776 252.333 L
286.351 247.573 L
284.172 241.915 L
280.172 236.111 L
275.789 230.812 L
272.561 226.358 L
271.682 222.708 L
273.646 219.509 L
278.092 216.271 L
283.898 212.585 L
289.496 208.302 L
293.317 203.593 L
294.24 198.889 L
291.908 194.7 L
286.82 191.403 L
280.172 189.059 L
273.511 187.348 L
268.282 185.642 L
265.425 183.206 L
265.134 179.464 L
266.827 174.23 L
269.358 167.836 L
271.369 161.08 L
271.693 155.025 L
269.675 150.677 L
265.326 148.658 L
259.271 148.982 L
252.516 150.993 L
246.121 153.524 L
240.887 155.218 L
237.145 154.926 L
234.709 152.07 L
233.003 146.84 L
231.292 140.179 L
228.949 133.532 L
225.651 128.443 L
221.462 126.111 L
216.758 127.034 L
212.05 130.855 L
207.766 136.453 L
S
GR
GS
2 setlinecap
10.0 ML
N
207.766 292.524 M
211.651 286.712 L
215.088 282.25 L
218.485 280.26 L
222.33 281.103 L
226.978 284.285 L
232.469 288.611 L
238.46 292.545 L
244.303 294.648 L
249.242 293.986 L
252.681 290.379 L
254.414 284.416 L
254.753 277.257 L
254.48 270.272 L
254.638 264.642 L
256.216 261.035 L
259.823 259.457 L
265.453 259.299 L
272.438 259.572 L
279.597 259.233 L
285.56 257.499 L
289.167 254.061 L
289.829 249.122 L
287.726 243.279 L
283.792 237.288 L
279.466 231.797 L
276.284 227.149 L
275.442 223.304 L
277.431 219.907 L
281.893 216.47 L
287.705 212.585 L
293.297 208.103 L
297.103 203.195 L
298 198.294 L
295.632 193.909 L
290.496 190.418 L
283.792 187.883 L
277.065 185.984 L
271.759 184.094 L
268.817 181.478 L
268.43 177.561 L
270.02 172.157 L
272.438 165.598 L
274.328 158.685 L
274.522 152.478 L
272.367 147.985 L
267.873 145.83 L
261.667 146.024 L
254.753 147.913 L
248.194 150.332 L
242.791 151.921 L
238.873 151.534 L
236.258 148.592 L
234.368 143.287 L
232.469 136.559 L
229.934 129.855 L
226.443 124.72 L
222.058 122.351 L
217.156 123.249 L
212.249 127.054 L
207.766 132.646 L
S
GR
GS
2 setlinecap
10.0 ML
N
207.766 296.33 M
211.85 290.514 L
215.486 286.036 L
219.081 284.02 L
223.122 284.827 L
227.963 287.961 L
233.645 292.232 L
239.824 296.099 L
245.851 298.125 L
250.97 297.378 L
254.584 293.676 L
256.487 287.609 L
256.991 280.336 L
256.876 273.23 L
257.185 267.47 L
258.908 263.727 L
262.652 262.004 L
268.411 261.694 L
275.518 261.809 L
282.79 261.306 L
288.857 259.403 L
292.559 255.789 L
293.306 250.67 L
291.28 244.643 L
287.413 238.464 L
283.143 232.782 L
280.008 227.941 L
279.201 223.899 L
281.217 220.305 L
285.695 216.669 L
291.512 212.585 L
297.099 207.903 L
300.888 202.798 L
301.76 197.698 L
299.355 193.117 L
294.173 189.432 L
287.413 186.706 L
280.619 184.62 L
275.237 182.545 L
272.209 179.75 L
271.727 175.657 L
273.212 170.084 L
275.518 163.361 L
277.286 156.289 L
277.351 149.931 L
275.058 145.293 L
270.42 143.001 L
264.062 143.065 L
256.991 144.834 L
250.267 147.139 L
244.694 148.624 L
240.601 148.143 L
237.806 145.115 L
235.732 139.733 L
233.645 132.939 L
230.919 126.178 L
227.234 120.996 L
222.653 118.592 L
217.554 119.463 L
212.448 123.253 L
207.766 128.84 L
S
GR
GS
2 setlinecap
10.0 ML
N
207.766 300.137 M
212.05 294.315 L
215.884 289.822 L
219.676 287.78 L
223.913 288.55 L
228.949 291.638 L
234.821 295.852 L
241.188 299.652 L
247.399 301.603 L
252.699 300.77 L
256.487 296.972 L
258.56 290.801 L
259.228 283.416 L
259.271 276.188 L
259.732 270.299 L
261.6 266.419 L
265.48 264.551 L
271.369 264.09 L
278.597 264.047 L
285.982 263.379 L
292.153 261.306 L
295.951 257.517 L
296.784 252.218 L
294.834 246.007 L
291.033 239.64 L
286.82 233.767 L
283.731 228.732 L
282.961 224.495 L
285.003 220.703 L
289.496 216.868 L
295.318 212.585 L
300.9 207.704 L
304.674 202.4 L
305.519 197.103 L
303.079 192.326 L
297.85 188.447 L
291.033 185.53 L
284.172 183.256 L
278.714 180.997 L
275.6 178.022 L
275.024 173.754 L
276.405 168.011 L
278.597 161.123 L
280.244 153.894 L
280.18 147.384 L
277.75 142.602 L
272.968 140.172 L
266.458 140.107 L
259.228 141.754 L
252.341 143.947 L
246.597 145.328 L
242.33 144.751 L
239.354 141.637 L
237.096 136.179 L
234.821 129.318 L
231.904 122.501 L
228.026 117.273 L
223.249 114.832 L
217.952 115.677 L
212.647 119.451 L
207.766 125.033 L
S
GR
GS
2 setlinecap
10.0 ML
N
207.766 303.944 M
212.249 298.116 L
216.282 293.607 L
220.271 291.54 L
224.705 292.273 L
229.934 295.315 L
235.998 299.472 L
242.553 303.206 L
248.948 305.08 L
254.427 304.161 L
258.39 300.269 L
260.634 293.994 L
261.465 286.496 L
261.667 279.147 L
262.279 273.128 L
264.291 269.11 L
268.309 267.098 L
274.328 266.486 L
281.677 266.284 L
289.175 265.452 L
295.45 263.209 L
299.342 259.245 L
300.261 253.767 L
298.387 247.371 L
294.653 240.816 L
290.496 234.753 L
287.455 229.523 L
286.721 225.09 L
288.789 221.101 L
293.297 217.068 L
299.125 212.585 L
304.702 207.505 L
308.46 202.002 L
309.279 196.507 L
306.802 191.534 L
301.527 187.462 L
294.653 184.354 L
287.726 181.891 L
282.192 179.449 L
278.992 176.294 L
278.32 171.851 L
279.597 165.938 L
281.677 158.886 L
283.203 151.498 L
283.008 144.837 L
280.442 139.91 L
275.515 137.343 L
268.853 137.149 L
261.465 138.675 L
254.414 140.754 L
248.501 142.031 L
244.058 141.359 L
240.903 138.16 L
238.46 132.625 L
235.998 125.698 L
232.889 118.824 L
228.817 113.549 L
223.844 111.072 L
218.35 111.891 L
212.846 115.65 L
207.766 121.227 L
S
GR
GS
2 setlinecap
10.0 ML
N
207.766 307.75 M
212.448 301.918 L
216.68 297.393 L
220.867 295.299 L
225.496 295.997 L
230.919 298.992 L
237.174 303.092 L
243.917 306.76 L
250.496 308.558 L
256.155 307.553 L
260.294 303.565 L
262.707 297.186 L
263.703 289.575 L
264.062 282.105 L
264.827 275.957 L
266.983 271.802 L
271.138 269.645 L
277.286 268.881 L
284.756 268.522 L
292.367 267.526 L
298.747 265.113 L
302.734 260.974 L
303.739 255.315 L
301.941 248.735 L
298.274 241.993 L
294.173 235.738 L
291.178 230.315 L
290.481 225.686 L
292.574 221.499 L
297.099 217.267 L
302.931 212.585 L
308.503 207.306 L
312.246 201.604 L
313.039 195.912 L
310.526 190.743 L
305.204 186.477 L
298.274 183.178 L
291.28 180.527 L
285.669 177.901 L
282.384 174.566 L
281.617 169.948 L
282.79 163.864 L
284.756 156.648 L
286.161 149.102 L
285.837 142.29 L
283.133 137.218 L
278.062 134.514 L
271.249 134.191 L
263.703 135.595 L
256.487 137.562 L
250.404 138.735 L
245.786 137.968 L
242.451 134.682 L
239.824 129.072 L
237.174 122.078 L
233.875 115.147 L
229.608 109.826 L
224.44 107.312 L
218.748 108.106 L
213.046 111.848 L
207.766 117.42 L
S
GR
GS
2 setlinecap
10.0 ML
N
207.766 311.557 M
212.647 305.719 L
217.078 301.179 L
221.462 299.059 L
226.287 299.72 L
231.904 302.669 L
238.35 306.713 L
245.281 310.314 L
252.044 312.035 L
257.883 310.945 L
262.197 306.862 L
264.78 300.378 L
265.94 292.655 L
266.458 285.063 L
267.374 278.786 L
269.675 274.494 L
273.967 272.193 L
280.244 271.277 L
287.836 270.759 L
295.56 269.599 L
302.043 267.016 L
306.126 262.702 L
307.216 256.863 L
305.495 250.1 L
301.894 243.169 L
297.85 236.723 L
294.901 231.106 L
294.24 226.281 L
296.36 221.897 L
300.9 217.466 L
306.738 212.585 L
312.304 207.107 L
316.031 201.206 L
316.799 195.316 L
314.249 189.952 L
308.881 185.492 L
301.894 182.001 L
294.834 179.163 L
289.147 176.352 L
285.776 172.837 L
284.913 168.044 L
285.982 161.791 L
287.836 154.411 L
289.119 146.707 L
288.666 139.743 L
285.825 134.527 L
280.609 131.685 L
273.645 131.232 L
265.94 132.515 L
258.56 134.369 L
252.307 135.438 L
247.514 134.576 L
243.999 131.205 L
241.188 125.518 L
238.35 118.457 L
234.86 111.47 L
230.4 106.102 L
225.035 103.553 L
219.145 104.32 L
213.245 108.047 L
207.766 113.613 L
S
GR
GS
2 setlinecap
10.0 ML
N
207.766 315.363 M
212.846 309.52 L
217.476 304.965 L
222.058 302.819 L
227.079 303.444 L
232.889 306.346 L
239.527 310.333 L
246.645 313.868 L
253.593 315.513 L
259.611 314.336 L
264.1 310.159 L
266.853 303.571 L
268.178 295.734 L
268.853 288.021 L
269.921 281.615 L
272.367 277.185 L
276.796 274.74 L
283.203 273.672 L
290.916 272.997 L
298.752 271.672 L
305.34 268.919 L
309.518 264.43 L
310.694 258.411 L
309.049 251.464 L
305.514 244.345 L
301.527 237.708 L
298.625 231.898 L
298 226.877 L
300.146 222.295 L
304.702 217.665 L
310.545 212.585 L
316.106 206.907 L
319.817 200.808 L
320.558 194.721 L
317.972 189.16 L
312.558 184.506 L
305.514 180.825 L
298.387 177.799 L
292.624 174.804 L
289.167 171.109 L
288.21 166.141 L
289.175 159.718 L
290.916 152.174 L
292.077 144.311 L
291.495 137.195 L
288.517 131.835 L
283.156 128.856 L
276.04 128.274 L
268.178 129.436 L
260.634 131.177 L
254.211 132.141 L
249.242 131.184 L
245.547 127.727 L
242.553 121.964 L
239.527 114.837 L
235.845 107.794 L
231.191 102.379 L
225.631 99.793 L
219.543 100.534 L
213.444 104.246 L
207.766 109.807 L
S
GR
GS
2 setlinecap
10.0 ML
N
207.766 319.17 M
213.046 313.322 L
217.874 308.75 L
222.653 306.579 L
227.87 307.167 L
233.875 310.023 L
240.703 313.953 L
248.009 317.421 L
255.141 318.99 L
261.339 317.728 L
266.004 313.455 L
268.926 306.763 L
270.415 298.814 L
271.249 290.98 L
272.468 284.444 L
275.058 279.877 L
279.625 277.287 L
286.161 276.068 L
293.995 275.234 L
301.945 273.745 L
308.636 270.822 L
312.909 266.158 L
314.171 259.96 L
312.603 252.828 L
309.135 245.522 L
305.204 238.693 L
302.348 232.689 L
301.76 227.472 L
303.932 222.693 L
308.503 217.865 L
314.351 212.585 L
319.907 206.708 L
323.603 200.41 L
324.318 194.125 L
321.696 188.369 L
316.235 183.521 L
309.135 179.649 L
301.941 176.435 L
296.102 173.256 L
292.559 169.381 L
291.507 164.238 L
292.367 157.645 L
293.995 149.936 L
295.036 141.916 L
294.324 134.648 L
291.208 129.143 L
285.703 126.028 L
278.436 125.316 L
270.415 126.356 L
262.707 127.984 L
256.114 128.845 L
250.97 127.792 L
247.096 124.25 L
243.917 118.41 L
240.703 111.217 L
236.83 104.117 L
231.983 98.656 L
226.226 96.033 L
219.941 96.748 L
213.643 100.444 L
207.766 106 L
S
GR
GS
2 setlinecap
10.0 ML
N
207.766 322.977 M
213.245 317.123 L
218.272 312.536 L
223.249 310.338 L
228.662 310.891 L
234.86 313.7 L
241.879 317.574 L
249.373 320.975 L
256.689 322.468 L
263.067 321.12 L
267.907 316.752 L
271 309.956 L
272.653 301.894 L
273.645 293.938 L
275.015 287.272 L
277.75 282.569 L
282.454 279.834 L
289.119 278.463 L
297.075 277.472 L
305.137 275.818 L
311.933 272.726 L
316.301 267.886 L
317.649 261.508 L
316.156 254.192 L
312.755 246.698 L
308.881 239.679 L
306.072 233.481 L
305.519 228.068 L
307.717 223.09 L
312.304 218.064 L
318.158 212.585 L
323.709 206.509 L
327.389 200.012 L
328.078 193.53 L
325.419 187.577 L
319.912 182.536 L
312.755 178.472 L
305.495 175.071 L
299.579 171.707 L
295.951 167.653 L
294.803 162.334 L
295.56 155.571 L
297.075 147.699 L
297.994 139.52 L
297.153 132.101 L
293.9 126.452 L
288.25 123.199 L
280.831 122.357 L
272.653 123.277 L
264.78 124.792 L
258.017 125.548 L
252.699 124.401 L
248.644 120.772 L
245.281 114.856 L
241.879 107.597 L
237.816 100.44 L
232.774 94.932 L
226.822 92.274 L
220.339 92.963 L
213.843 96.643 L
207.766 102.194 L
S
GR
GS
2 setlinecap
10.0 ML
N
207.766 326.783 M
213.444 320.925 L
218.669 316.322 L
223.844 314.098 L
229.453 314.614 L
235.845 317.377 L
243.055 321.194 L
250.737 324.529 L
258.237 325.945 L
264.796 324.512 L
269.81 320.048 L
273.073 313.148 L
274.89 304.973 L
276.04 296.896 L
277.562 290.101 L
280.442 285.26 L
285.282 282.381 L
292.077 280.859 L
300.155 279.709 L
308.33 277.892 L
315.23 274.629 L
319.693 269.614 L
321.126 263.056 L
319.71 255.556 L
316.375 247.874 L
312.558 240.664 L
309.795 234.272 L
309.279 228.663 L
311.503 223.488 L
316.106 218.263 L
321.964 212.585 L
327.51 206.31 L
331.174 199.614 L
331.838 192.934 L
329.143 186.786 L
323.589 181.551 L
316.375 177.296 L
309.049 173.706 L
303.057 170.159 L
299.342 165.925 L
298.1 160.431 L
298.752 153.498 L
300.155 145.461 L
300.952 137.125 L
299.982 129.554 L
296.592 123.76 L
290.797 120.37 L
283.227 119.399 L
274.89 120.197 L
266.853 121.599 L
259.92 122.252 L
254.427 121.009 L
250.192 117.295 L
246.645 111.303 L
243.055 103.976 L
238.801 96.763 L
233.566 91.209 L
227.417 88.514 L
220.737 89.177 L
214.042 92.841 L
207.766 98.387 L
S
GR
GS
2 setlinecap
10.0 ML
N
207.766 330.59 M
213.643 324.726 L
219.067 320.108 L
224.44 317.858 L
230.245 318.337 L
236.83 321.054 L
244.232 324.814 L
252.102 328.083 L
259.786 329.423 L
266.524 327.903 L
271.714 323.345 L
275.146 316.341 L
277.128 308.053 L
278.436 299.855 L
280.109 292.93 L
283.133 287.952 L
288.111 284.928 L
295.036 283.255 L
303.234 281.947 L
311.522 279.965 L
318.526 276.532 L
323.084 271.343 L
324.604 264.605 L
323.264 256.92 L
319.995 249.051 L
316.235 241.649 L
313.519 235.063 L
313.039 229.259 L
315.289 223.886 L
319.907 218.462 L
325.771 212.585 L
331.311 206.11 L
334.96 199.217 L
335.597 192.339 L
332.866 185.994 L
327.265 180.565 L
319.995 176.12 L
312.603 172.342 L
306.534 168.611 L
302.734 164.197 L
301.397 158.528 L
301.945 151.425 L
303.234 143.224 L
303.911 134.729 L
302.81 127.007 L
299.283 121.068 L
293.344 117.541 L
285.622 116.441 L
277.128 117.117 L
268.926 118.407 L
261.824 118.955 L
256.155 117.617 L
251.741 113.817 L
248.009 107.749 L
244.232 100.356 L
239.786 93.086 L
234.357 87.485 L
228.013 84.754 L
221.135 85.391 L
214.241 89.04 L
207.766 94.58 L
S
GR
GS
2 setlinecap
10.0 ML
N
207.766 334.396 M
213.843 328.527 L
219.465 323.893 L
225.035 321.618 L
231.036 322.061 L
237.816 324.73 L
245.408 328.435 L
253.466 331.636 L
261.334 332.9 L
268.252 331.295 L
273.617 326.642 L
277.219 319.533 L
279.365 311.133 L
280.831 302.813 L
282.656 295.759 L
285.825 290.644 L
290.94 287.475 L
297.994 285.65 L
306.314 284.184 L
314.715 282.038 L
321.823 278.436 L
326.476 273.071 L
328.081 266.153 L
326.818 258.285 L
323.616 250.227 L
319.912 242.634 L
317.242 235.855 L
316.799 229.854 L
319.075 224.284 L
323.709 218.661 L
329.578 212.585 L
335.113 205.911 L
338.746 198.819 L
339.357 191.743 L
336.589 185.203 L
330.942 179.58 L
323.616 174.943 L
316.156 170.978 L
310.012 167.063 L
306.126 162.468 L
304.693 156.624 L
305.137 149.352 L
306.314 140.986 L
306.869 132.333 L
305.639 124.46 L
301.975 118.377 L
295.892 114.712 L
288.018 113.483 L
279.365 114.038 L
271 115.214 L
263.727 115.658 L
257.883 114.226 L
253.289 110.34 L
249.373 104.195 L
245.408 96.736 L
240.771 89.409 L
235.149 83.762 L
228.608 80.994 L
221.533 81.605 L
214.44 85.239 L
207.766 90.774 L
S
GR
GS
2 setlinecap
10.0 ML
N
207.766 338.203 M
214.042 332.329 L
219.863 327.679 L
225.631 325.377 L
231.828 325.784 L
238.801 328.407 L
246.584 332.055 L
254.83 335.19 L
262.882 336.378 L
269.98 334.687 L
275.52 329.938 L
279.293 322.726 L
281.603 314.212 L
283.227 305.771 L
285.203 298.588 L
288.517 293.335 L
293.769 290.022 L
300.952 288.046 L
309.393 286.421 L
317.907 284.111 L
325.119 280.339 L
329.868 274.799 L
331.559 267.701 L
330.371 259.649 L
327.236 251.403 L
323.589 243.62 L
320.965 236.646 L
320.558 230.45 L
322.86 224.682 L
327.51 218.861 L
333.384 212.585 L
338.914 205.712 L
342.532 198.421 L
343.117 191.148 L
340.313 184.411 L
334.619 178.595 L
327.236 173.767 L
319.71 169.614 L
313.489 165.514 L
309.518 160.74 L
307.99 154.721 L
308.33 147.279 L
309.393 138.749 L
309.827 129.938 L
308.468 121.913 L
304.667 115.685 L
298.439 111.883 L
290.414 110.524 L
281.603 110.958 L
273.073 112.022 L
265.63 112.362 L
259.611 110.834 L
254.837 106.862 L
250.737 100.641 L
246.584 93.115 L
241.756 85.732 L
235.94 80.039 L
229.204 77.235 L
221.931 77.82 L
214.639 81.437 L
207.766 86.967 L
S
GR
GS
2 setlinecap
10.0 ML
N
207.766 342.01 M
214.241 336.13 L
220.261 331.465 L
226.226 329.137 L
232.619 329.508 L
239.786 332.084 L
247.761 335.675 L
256.194 338.744 L
264.431 339.855 L
271.708 338.078 L
277.423 333.235 L
281.366 325.918 L
283.84 317.292 L
285.622 308.729 L
287.751 301.417 L
291.208 296.027 L
296.598 292.569 L
303.911 290.441 L
312.473 288.659 L
321.1 286.185 L
328.416 282.242 L
333.259 276.527 L
335.036 269.249 L
333.925 261.013 L
330.856 252.579 L
327.265 244.605 L
324.689 237.438 L
324.318 231.045 L
326.646 225.08 L
331.311 219.06 L
337.191 212.585 L
342.716 205.513 L
346.317 198.023 L
346.877 190.552 L
344.036 183.62 L
338.296 177.61 L
330.856 172.591 L
323.264 168.25 L
316.967 163.966 L
312.909 159.012 L
311.286 152.818 L
311.522 145.205 L
312.473 136.511 L
312.785 127.542 L
311.297 119.366 L
307.358 112.993 L
300.986 109.054 L
292.809 107.566 L
283.84 107.879 L
275.146 108.829 L
267.534 109.065 L
261.339 107.442 L
256.385 103.385 L
252.102 97.088 L
247.761 89.495 L
242.742 82.055 L
236.731 76.315 L
229.799 73.475 L
222.329 74.034 L
214.839 77.636 L
207.766 83.161 L
S
GR
GS
2 setlinecap
10.0 ML
N
207.766 345.816 M
214.44 339.932 L
220.659 335.251 L
226.822 332.897 L
233.41 333.231 L
240.771 335.761 L
248.937 339.295 L
257.558 342.298 L
265.979 343.333 L
273.436 341.47 L
279.327 336.532 L
283.439 329.111 L
286.078 320.371 L
288.018 311.688 L
290.298 304.246 L
293.9 298.719 L
299.427 295.117 L
306.869 292.837 L
315.553 290.896 L
324.292 288.258 L
331.713 284.146 L
336.651 278.255 L
338.514 270.798 L
337.479 262.377 L
334.477 253.756 L
330.942 245.59 L
328.412 238.229 L
328.078 231.641 L
330.432 225.478 L
335.113 219.259 L
340.997 212.585 L
346.517 205.314 L
350.103 197.625 L
350.636 189.957 L
347.76 182.829 L
341.973 176.625 L
334.477 171.414 L
326.818 166.886 L
320.444 162.418 L
316.301 157.284 L
314.583 150.915 L
314.715 143.132 L
315.553 134.274 L
315.744 125.147 L
314.126 116.819 L
310.05 110.301 L
303.533 106.226 L
295.205 104.608 L
286.078 104.799 L
277.219 105.637 L
269.437 105.768 L
263.067 104.05 L
257.934 99.907 L
253.466 93.534 L
248.937 85.875 L
243.727 78.378 L
237.523 72.592 L
230.395 69.715 L
222.727 70.248 L
215.038 73.835 L
207.766 79.354 L
S
GR
GS
2 setlinecap
10.0 ML
N
207.766 349.623 M
214.639 343.733 L
221.057 339.036 L
227.417 336.656 L
234.202 336.954 L
241.756 339.438 L
250.113 342.916 L
258.922 345.852 L
267.527 346.81 L
275.165 344.862 L
281.23 339.828 L
285.512 332.303 L
288.315 323.451 L
290.414 314.646 L
292.845 307.074 L
296.592 301.41 L
302.256 297.664 L
309.827 295.232 L
318.632 293.134 L
327.485 290.331 L
335.009 286.049 L
340.043 279.983 L
341.991 272.346 L
341.033 263.741 L
338.097 254.932 L
334.619 246.575 L
332.136 239.021 L
331.838 232.236 L
334.218 225.876 L
338.914 219.458 L
344.804 212.585 L
350.318 205.114 L
353.889 197.227 L
354.396 189.361 L
351.483 182.037 L
345.65 175.639 L
338.097 170.238 L
330.371 165.521 L
323.922 160.869 L
319.693 155.556 L
317.88 149.011 L
317.907 141.059 L
318.632 132.036 L
318.702 122.751 L
316.955 114.271 L
312.742 107.61 L
306.08 103.397 L
297.6 101.649 L
288.315 101.719 L
279.293 102.444 L
271.34 102.472 L
264.796 100.659 L
259.482 96.43 L
254.83 89.98 L
250.113 82.255 L
244.712 74.702 L
238.314 68.868 L
230.99 65.955 L
223.124 66.462 L
215.237 70.033 L
207.766 75.547 L
S
GR
GS
2 setlinecap
10.0 ML
N
207.766 353.429 M
214.839 347.534 L
221.455 342.822 L
228.013 340.416 L
234.993 340.678 L
242.742 343.115 L
251.29 346.536 L
260.287 349.405 L
269.075 350.288 L
276.893 348.253 L
283.133 343.125 L
287.585 335.496 L
290.553 326.531 L
292.809 317.604 L
295.392 309.903 L
299.283 304.102 L
305.084 300.211 L
312.785 297.628 L
321.712 295.371 L
330.677 292.404 L
338.306 287.952 L
343.435 281.712 L
345.469 273.894 L
344.586 265.105 L
341.717 256.108 L
338.296 247.56 L
335.859 239.812 L
335.597 232.832 L
338.003 226.274 L
342.716 219.658 L
348.611 212.585 L
354.12 204.915 L
357.675 196.829 L
358.156 188.766 L
355.207 181.246 L
349.327 174.654 L
341.717 169.062 L
333.925 164.157 L
327.399 159.321 L
323.084 153.828 L
321.176 147.108 L
321.1 138.986 L
321.712 129.799 L
321.66 120.356 L
319.784 111.724 L
315.433 104.918 L
308.627 100.568 L
299.996 98.691 L
290.553 98.64 L
281.366 99.252 L
273.244 99.175 L
266.524 97.267 L
261.03 92.952 L
256.194 86.426 L
251.29 78.634 L
245.697 71.025 L
239.106 65.145 L
231.586 62.196 L
223.522 62.677 L
215.436 66.232 L
207.766 71.741 L
S
GR
GS
2 setlinecap
10.0 ML
N
207.766 357.236 M
215.038 351.336 L
221.853 346.608 L
228.608 344.176 L
235.785 344.401 L
243.727 346.792 L
252.466 350.156 L
261.651 352.959 L
270.624 353.765 L
278.621 351.645 L
285.037 346.421 L
289.659 338.688 L
292.79 329.61 L
295.205 320.563 L
297.939 312.732 L
301.975 306.794 L
307.913 302.758 L
315.744 300.024 L
324.791 297.609 L
333.87 294.478 L
341.603 289.855 L
346.826 283.44 L
348.946 275.443 L
348.14 266.47 L
345.337 257.285 L
341.973 248.546 L
339.583 240.604 L
339.357 233.427 L
341.789 226.671 L
346.517 219.857 L
352.417 212.585 L
357.921 204.716 L
361.46 196.431 L
361.916 188.17 L
358.93 180.454 L
353.004 173.669 L
345.337 167.886 L
337.479 162.793 L
330.877 157.773 L
326.476 152.099 L
324.473 145.205 L
324.292 136.912 L
324.791 127.561 L
324.619 117.96 L
322.612 109.177 L
318.125 102.226 L
311.174 97.739 L
302.391 95.733 L
292.79 95.56 L
283.439 96.059 L
275.147 95.879 L
268.252 93.875 L
262.579 89.475 L
257.558 82.873 L
252.466 75.014 L
246.683 67.348 L
239.897 61.421 L
232.181 58.436 L
223.92 58.891 L
215.636 62.43 L
207.766 67.934 L
S
GR
GS
2 setlinecap
10.0 ML
N
207.766 361.043 M
215.237 355.137 L
222.251 350.394 L
229.204 347.936 L
236.576 348.125 L
244.712 350.469 L
253.642 353.777 L
263.015 356.513 L
272.172 357.243 L
280.349 355.037 L
286.94 349.718 L
291.732 341.881 L
295.027 332.69 L
297.6 323.521 L
300.486 315.561 L
304.667 309.485 L
310.742 305.305 L
318.702 302.419 L
327.871 299.846 L
337.062 296.551 L
344.899 291.759 L
350.218 285.168 L
352.424 276.991 L
351.694 267.834 L
348.958 258.461 L
345.65 249.531 L
343.306 241.395 L
343.117 234.023 L
345.575 227.069 L
350.318 220.056 L
356.224 212.585 L
361.722 204.517 L
365.246 196.033 L
365.675 187.575 L
362.653 179.663 L
356.681 172.684 L
348.958 166.709 L
341.033 161.429 L
334.354 156.225 L
329.868 150.371 L
327.769 143.301 L
327.485 134.839 L
327.871 125.324 L
327.577 115.564 L
325.441 106.63 L
320.817 99.535 L
313.721 94.91 L
304.787 92.775 L
295.027 92.48 L
285.512 92.867 L
277.05 92.582 L
269.98 90.484 L
264.127 85.997 L
258.922 79.319 L
253.642 71.394 L
247.668 63.671 L
240.689 57.698 L
232.777 54.676 L
224.318 55.105 L
215.835 58.629 L
207.766 64.128 L
S
GR
GS
2 setlinecap
10.0 ML
N
207.766 364.849 M
215.436 358.939 L
222.648 354.179 L
229.799 351.695 L
237.368 351.848 L
245.697 354.146 L
254.818 357.397 L
264.379 360.067 L
273.72 360.72 L
282.077 358.429 L
288.843 353.015 L
293.805 345.073 L
297.265 335.769 L
299.996 326.479 L
303.033 318.39 L
307.358 312.177 L
313.571 307.852 L
321.66 304.815 L
330.951 302.084 L
340.254 298.624 L
348.196 293.662 L
353.61 286.896 L
355.901 278.539 L
355.248 269.198 L
352.578 259.637 L
349.327 250.516 L
347.029 242.186 L
346.877 234.618 L
349.361 227.467 L
354.12 220.255 L
360.03 212.585 L
365.524 204.317 L
369.032 195.635 L
369.435 186.979 L
366.377 178.871 L
360.357 171.698 L
352.578 165.533 L
344.586 160.065 L
337.832 154.676 L
333.259 148.643 L
331.066 141.398 L
330.677 132.766 L
330.951 123.087 L
330.535 113.169 L
328.27 104.083 L
323.508 96.843 L
316.268 92.081 L
307.183 89.816 L
297.265 89.401 L
287.585 89.674 L
278.953 89.285 L
271.708 87.092 L
265.675 82.52 L
260.287 75.765 L
254.818 67.773 L
248.653 59.994 L
241.48 53.975 L
233.372 50.916 L
224.716 51.319 L
216.034 54.828 L
207.766 60.321 L
S
GR
GS
2 setlinecap
10.0 ML
N
207.766 368.656 M
215.636 362.74 L
223.046 357.965 L
230.395 355.455 L
238.159 355.572 L
246.683 357.823 L
255.995 361.017 L
265.743 363.62 L
275.269 364.198 L
283.805 361.82 L
290.747 356.311 L
295.878 348.266 L
299.502 338.849 L
302.391 329.437 L
305.58 321.219 L
310.05 314.869 L
316.4 310.399 L
324.619 307.21 L
334.03 304.321 L
343.447 300.697 L
351.492 295.565 L
357.001 288.624 L
359.379 280.087 L
358.802 270.562 L
356.198 260.814 L
353.004 251.501 L
350.753 242.978 L
350.636 235.214 L
353.146 227.865 L
357.921 220.454 L
363.837 212.585 L
369.325 204.118 L
372.818 195.238 L
373.195 186.384 L
370.1 178.08 L
364.034 170.713 L
356.198 164.357 L
348.14 158.701 L
341.309 153.128 L
336.651 146.915 L
334.363 139.495 L
333.87 130.693 L
334.03 120.849 L
333.493 110.773 L
331.099 101.536 L
326.2 94.151 L
318.816 89.252 L
309.578 86.858 L
299.502 86.321 L
289.659 86.482 L
280.857 85.989 L
273.436 83.7 L
267.223 79.042 L
261.651 72.211 L
255.995 64.153 L
249.638 56.317 L
242.271 50.251 L
233.968 47.157 L
225.114 47.534 L
216.233 51.026 L
207.766 56.514 L
S
GR
GS
2 setlinecap
10.0 ML
N
207.766 372.462 M
215.835 366.541 L
223.444 361.751 L
230.99 359.215 L
238.95 359.295 L
247.668 361.499 L
257.171 364.637 L
267.107 367.174 L
276.817 367.675 L
285.534 365.212 L
292.65 359.608 L
297.952 351.458 L
301.74 341.929 L
304.787 332.396 L
308.128 324.048 L
312.742 317.56 L
319.229 312.946 L
327.577 309.606 L
337.11 306.559 L
346.639 302.77 L
354.789 297.469 L
360.393 290.352 L
362.856 281.636 L
362.355 271.926 L
359.819 261.99 L
356.681 252.487 L
354.476 243.769 L
354.396 235.809 L
356.932 228.263 L
361.722 220.654 L
367.644 212.585 L
373.127 203.919 L
376.603 194.84 L
376.954 185.788 L
373.824 177.289 L
367.711 169.728 L
359.819 163.18 L
351.694 157.336 L
344.787 151.58 L
340.043 145.187 L
337.659 137.591 L
337.062 128.62 L
337.11 118.612 L
336.452 108.378 L
333.928 98.989 L
328.892 91.46 L
321.363 86.424 L
311.974 83.9 L
301.74 83.242 L
291.732 83.289 L
282.76 82.692 L
275.165 80.309 L
268.772 75.565 L
263.015 68.657 L
257.171 60.533 L
250.623 52.64 L
243.063 46.528 L
234.563 43.397 L
225.512 43.748 L
216.432 47.225 L
207.766 52.708 L
S
GR
GS
2 setlinecap
10.0 ML
N
207.766 376.269 M
216.034 370.343 L
223.842 365.537 L
231.586 362.975 L
239.742 363.018 L
248.653 365.176 L
258.347 368.258 L
268.472 370.728 L
278.365 371.153 L
287.262 368.604 L
294.553 362.904 L
300.025 354.651 L
303.977 345.008 L
307.183 335.354 L
310.675 326.876 L
315.433 320.252 L
322.058 315.493 L
330.535 312.001 L
340.189 308.796 L
349.832 304.844 L
358.086 299.372 L
363.785 292.081 L
366.334 283.184 L
365.909 273.29 L
363.439 263.166 L
360.357 253.472 L
358.2 244.561 L
358.156 236.404 L
360.718 228.661 L
365.524 220.853 L
371.45 212.585 L
376.928 203.72 L
380.389 194.442 L
380.714 185.193 L
377.547 176.497 L
371.388 168.743 L
363.439 162.004 L
355.248 155.972 L
348.264 150.031 L
343.435 143.459 L
340.956 135.688 L
340.254 126.546 L
340.189 116.374 L
339.41 105.982 L
336.757 96.442 L
331.583 88.768 L
323.91 83.595 L
314.369 80.941 L
303.977 80.162 L
293.805 80.097 L
284.663 79.396 L
276.893 76.917 L
270.32 72.087 L
264.379 65.104 L
258.347 56.912 L
251.609 48.963 L
243.854 42.804 L
235.159 39.637 L
225.91 39.962 L
216.632 43.423 L
207.766 48.901 L
S
GR
GS
2 setlinecap
10.0 ML
N
207.766 380.076 M
216.233 374.144 L
224.24 369.322 L
232.181 366.734 L
240.533 366.742 L
249.638 368.853 L
259.524 371.878 L
269.836 374.282 L
279.913 374.63 L
288.99 371.995 L
296.456 366.201 L
302.098 357.843 L
306.215 348.088 L
309.578 338.312 L
313.222 329.705 L
318.125 322.944 L
324.886 318.041 L
333.493 314.397 L
343.269 311.034 L
353.024 306.917 L
361.382 301.275 L
367.177 293.809 L
369.811 284.732 L
369.463 274.655 L
367.059 264.343 L
364.034 254.457 L
361.923 245.352 L
361.916 237 L
364.504 229.059 L
369.325 221.052 L
375.257 212.585 L
380.729 203.521 L
384.175 194.044 L
384.474 184.597 L
381.27 175.706 L
375.065 167.758 L
367.059 160.828 L
358.802 154.608 L
351.742 148.483 L
346.826 141.731 L
344.253 133.785 L
343.447 124.473 L
343.269 114.137 L
342.368 103.587 L
339.586 93.894 L
334.275 86.076 L
326.457 80.766 L
316.765 77.983 L
306.215 77.082 L
295.878 76.904 L
286.567 76.099 L
278.621 73.525 L
271.868 68.61 L
265.743 61.55 L
259.524 53.292 L
252.594 45.286 L
244.646 39.081 L
235.754 35.877 L
226.308 36.176 L
216.831 39.622 L
207.766 45.095 L
S
GR
GS
2 setlinecap
10.0 ML
N
207.766 383.882 M
216.432 377.945 L
224.638 373.108 L
232.777 370.494 L
241.325 370.465 L
250.623 372.53 L
260.7 375.498 L
271.2 377.835 L
281.462 378.108 L
290.718 375.387 L
298.36 369.498 L
304.171 361.036 L
308.452 351.167 L
311.974 341.271 L
315.769 332.534 L
320.817 325.635 L
327.715 320.588 L
336.452 316.793 L
346.349 313.271 L
356.217 308.99 L
364.679 303.179 L
370.568 295.537 L
373.289 286.281 L
373.017 276.019 L
370.68 265.519 L
367.711 255.442 L
365.646 246.144 L
365.675 237.595 L
368.289 229.457 L
373.127 221.251 L
379.063 212.585 L
384.531 203.321 L
387.961 193.646 L
388.234 184.002 L
384.994 174.914 L
378.742 166.772 L
370.68 159.651 L
362.355 153.244 L
355.219 146.935 L
350.218 140.002 L
347.549 131.881 L
346.639 122.4 L
346.349 111.899 L
345.327 101.191 L
342.414 91.347 L
336.967 83.385 L
329.004 77.937 L
319.16 75.025 L
308.452 74.003 L
297.952 73.712 L
288.47 72.802 L
280.349 70.133 L
273.417 65.132 L
267.107 57.996 L
260.7 49.672 L
253.579 41.609 L
245.437 35.358 L
236.35 32.118 L
226.706 32.391 L
217.03 35.821 L
207.766 41.288 L
S
GR
GS
2 setlinecap
10.0 ML
N
207.766 269.684 M
207.766 273.491 L
207.766 277.297 L
207.766 281.104 L
207.766 284.911 L
207.766 288.717 L
207.766 292.524 L
207.766 296.33 L
207.766 300.137 L
207.766 303.944 L
207.766 307.75 L
207.766 311.557 L
207.766 315.363 L
207.766 319.17 L
207.766 322.977 L
207.766 326.783 L
207.766 330.59 L
207.766 334.396 L
207.766 338.203 L
207.766 342.01 L
207.766 345.816 L
207.766 349.623 L
207.766 353.429 L
207.766 357.236 L
207.766 361.043 L
207.766 364.849 L
207.766 368.656 L
207.766 372.462 L
207.766 376.269 L
207.766 380.076 L
207.766 383.882 L
S
GR
GS
2 setlinecap
10.0 ML
N
210.456 263.904 M
210.655 267.705 L
210.854 271.507 L
211.053 275.308 L
211.253 279.109 L
211.452 282.911 L
211.651 286.712 L
211.85 290.514 L
212.05 294.315 L
212.249 298.116 L
212.448 301.918 L
212.647 305.719 L
212.846 309.52 L
213.046 313.322 L
213.245 317.123 L
213.444 320.925 L
213.643 324.726 L
213.843 328.527 L
214.042 332.329 L
214.241 336.13 L
214.44 339.932 L
214.639 343.733 L
214.839 347.534 L
215.038 351.336 L
215.237 355.137 L
215.436 358.939 L
215.636 362.74 L
215.835 366.541 L
216.034 370.343 L
216.233 374.144 L
216.432 377.945 L
S
GR
GS
2 setlinecap
10.0 ML
N
212.701 259.536 M
213.099 263.321 L
213.497 267.107 L
213.895 270.893 L
214.293 274.679 L
214.691 278.464 L
215.088 282.25 L
215.486 286.036 L
215.884 289.822 L
216.282 293.607 L
216.68 297.393 L
217.078 301.179 L
217.476 304.965 L
217.874 308.75 L
218.272 312.536 L
218.669 316.322 L
219.067 320.108 L
219.465 323.893 L
219.863 327.679 L
220.261 331.465 L
220.659 335.251 L
221.057 339.036 L
221.455 342.822 L
221.853 346.608 L
222.251 350.394 L
222.648 354.179 L
223.046 357.965 L
223.444 361.751 L
223.842 365.537 L
224.24 369.322 L
224.638 373.108 L
S
GR
GS
2 setlinecap
10.0 ML
N
214.912 257.702 M
215.508 261.462 L
216.103 265.221 L
216.699 268.981 L
217.294 272.741 L
217.89 276.501 L
218.485 280.26 L
219.081 284.02 L
219.676 287.78 L
220.271 291.54 L
220.867 295.299 L
221.462 299.059 L
222.058 302.819 L
222.653 306.579 L
223.249 310.338 L
223.844 314.098 L
224.44 317.858 L
225.035 321.618 L
225.631 325.377 L
226.226 329.137 L
226.822 332.897 L
227.417 336.656 L
228.013 340.416 L
228.608 344.176 L
229.204 347.936 L
229.799 351.695 L
230.395 355.455 L
230.99 359.215 L
231.586 362.975 L
232.181 366.734 L
232.777 370.494 L
S
GR
GS
2 setlinecap
10.0 ML
N
217.582 258.763 M
218.373 262.486 L
219.165 266.21 L
219.956 269.933 L
220.747 273.656 L
221.539 277.38 L
222.33 281.103 L
223.122 284.827 L
223.913 288.55 L
224.705 292.273 L
225.496 295.997 L
226.287 299.72 L
227.079 303.444 L
227.87 307.167 L
228.662 310.891 L
229.453 314.614 L
230.245 318.337 L
231.036 322.061 L
231.828 325.784 L
232.619 329.508 L
233.41 333.231 L
234.202 336.954 L
234.993 340.678 L
235.785 344.401 L
236.576 348.125 L
237.368 351.848 L
238.159 355.572 L
238.95 359.295 L
239.742 363.018 L
240.533 366.742 L
241.325 370.465 L
S
GR
GS
2 setlinecap
10.0 ML
N
221.067 262.223 M
222.052 265.9 L
223.037 269.577 L
224.022 273.254 L
225.008 276.931 L
225.993 280.608 L
226.978 284.285 L
227.963 287.961 L
228.949 291.638 L
229.934 295.315 L
230.919 298.992 L
231.904 302.669 L
232.889 306.346 L
233.875 310.023 L
234.86 313.7 L
235.845 317.377 L
236.83 321.054 L
237.816 324.73 L
238.801 328.407 L
239.786 332.084 L
240.771 335.761 L
241.756 339.438 L
242.742 343.115 L
243.727 346.792 L
244.712 350.469 L
245.697 354.146 L
246.683 357.823 L
247.668 361.499 L
248.653 365.176 L
249.638 368.853 L
250.623 372.53 L
S
GR
GS
2 setlinecap
10.0 ML
N
225.411 266.89 M
226.587 270.51 L
227.763 274.13 L
228.94 277.75 L
230.116 281.371 L
231.292 284.991 L
232.469 288.611 L
233.645 292.232 L
234.821 295.852 L
235.998 299.472 L
237.174 303.092 L
238.35 306.713 L
239.527 310.333 L
240.703 313.953 L
241.879 317.574 L
243.055 321.194 L
244.232 324.814 L
245.408 328.435 L
246.584 332.055 L
247.761 335.675 L
248.937 339.295 L
250.113 342.916 L
251.29 346.536 L
252.466 350.156 L
253.642 353.777 L
254.818 357.397 L
255.995 361.017 L
257.171 364.637 L
258.347 368.258 L
259.524 371.878 L
260.7 375.498 L
S
GR
GS
2 setlinecap
10.0 ML
N
230.275 271.222 M
231.639 274.776 L
233.003 278.33 L
234.368 281.884 L
235.732 285.437 L
237.096 288.991 L
238.46 292.545 L
239.824 296.099 L
241.188 299.652 L
242.553 303.206 L
243.917 306.76 L
245.281 310.314 L
246.645 313.868 L
248.009 317.421 L
249.373 320.975 L
250.737 324.529 L
252.102 328.083 L
253.466 331.636 L
254.83 335.19 L
256.194 338.744 L
257.558 342.298 L
258.922 345.852 L
260.287 349.405 L
261.651 352.959 L
263.015 356.513 L
264.379 360.067 L
265.743 363.62 L
267.107 367.174 L
268.472 370.728 L
269.836 374.282 L
271.2 377.835 L
S
GR
GS
2 setlinecap
10.0 ML
N
235.013 273.783 M
236.561 277.26 L
238.11 280.738 L
239.658 284.215 L
241.206 287.693 L
242.755 291.17 L
244.303 294.648 L
245.851 298.125 L
247.399 301.603 L
248.948 305.08 L
250.496 308.558 L
252.044 312.035 L
253.593 315.513 L
255.141 318.99 L
256.689 322.468 L
258.237 325.945 L
259.786 329.423 L
261.334 332.9 L
262.882 336.378 L
264.431 339.855 L
265.979 343.333 L
267.527 346.81 L
269.075 350.288 L
270.624 353.765 L
272.172 357.243 L
273.72 360.72 L
275.269 364.198 L
276.817 367.675 L
278.365 371.153 L
279.913 374.63 L
281.462 378.108 L
S
GR
GS
2 setlinecap
10.0 ML
N
238.873 273.636 M
240.601 277.028 L
242.33 280.419 L
244.058 283.811 L
245.786 287.203 L
247.514 290.594 L
249.242 293.986 L
250.97 297.378 L
252.699 300.77 L
254.427 304.161 L
256.155 307.553 L
257.883 310.945 L
259.611 314.336 L
261.339 317.728 L
263.067 321.12 L
264.796 324.512 L
266.524 327.903 L
268.252 331.295 L
269.98 334.687 L
271.708 338.078 L
273.436 341.47 L
275.165 344.862 L
276.893 348.253 L
278.621 351.645 L
280.349 355.037 L
282.077 358.429 L
283.805 361.82 L
285.534 365.212 L
287.262 368.604 L
288.99 371.995 L
290.718 375.387 L
S
GR
GS
2 setlinecap
10.0 ML
N
241.261 270.599 M
243.164 273.896 L
245.067 277.192 L
246.971 280.489 L
248.874 283.786 L
250.777 287.082 L
252.681 290.379 L
254.584 293.676 L
256.487 296.972 L
258.39 300.269 L
260.294 303.565 L
262.197 306.862 L
264.1 310.159 L
266.004 313.455 L
267.907 316.752 L
269.81 320.048 L
271.714 323.345 L
273.617 326.642 L
275.52 329.938 L
277.423 333.235 L
279.327 336.532 L
281.23 339.828 L
283.133 343.125 L
285.037 346.421 L
286.94 349.718 L
288.843 353.015 L
290.747 356.311 L
292.65 359.608 L
294.553 362.904 L
296.456 366.201 L
298.36 369.498 L
S
GR
GS
2 setlinecap
10.0 ML
N
241.975 265.261 M
244.048 268.454 L
246.121 271.646 L
248.194 274.839 L
250.267 278.031 L
252.341 281.224 L
254.414 284.416 L
256.487 287.609 L
258.56 290.801 L
260.634 293.994 L
262.707 297.186 L
264.78 300.378 L
266.853 303.571 L
268.926 306.763 L
271 309.956 L
273.073 313.148 L
275.146 316.341 L
277.219 319.533 L
279.293 322.726 L
281.366 325.918 L
283.439 329.111 L
285.512 332.303 L
287.585 335.496 L
289.659 338.688 L
291.732 341.881 L
293.805 345.073 L
295.878 348.266 L
297.952 351.458 L
300.025 354.651 L
302.098 357.843 L
304.171 361.036 L
S
GR
GS
2 setlinecap
10.0 ML
N
241.328 258.779 M
243.566 261.859 L
245.803 264.938 L
248.041 268.018 L
250.278 271.098 L
252.516 274.177 L
254.753 277.257 L
256.991 280.336 L
259.228 283.416 L
261.465 286.496 L
263.703 289.575 L
265.94 292.655 L
268.178 295.734 L
270.415 298.814 L
272.653 301.894 L
274.89 304.973 L
277.128 308.053 L
279.365 311.133 L
281.603 314.212 L
283.84 317.292 L
286.078 320.371 L
288.315 323.451 L
290.553 326.531 L
292.79 329.61 L
295.027 332.69 L
297.265 335.769 L
299.502 338.849 L
301.74 341.929 L
303.977 345.008 L
306.215 348.088 L
308.452 351.167 L
S
GR
GS
2 setlinecap
10.0 ML
N
240.107 252.522 M
242.502 255.48 L
244.898 258.439 L
247.293 261.397 L
249.689 264.355 L
252.084 267.313 L
254.48 270.272 L
256.876 273.23 L
259.271 276.188 L
261.667 279.147 L
264.062 282.105 L
266.458 285.063 L
268.853 288.021 L
271.249 290.98 L
273.645 293.938 L
276.04 296.896 L
278.436 299.855 L
280.831 302.813 L
283.227 305.771 L
285.622 308.729 L
288.018 311.688 L
290.414 314.646 L
292.809 317.604 L
295.205 320.563 L
297.6 323.521 L
299.996 326.479 L
302.391 329.437 L
304.787 332.396 L
307.183 335.354 L
309.578 338.312 L
311.974 341.271 L
S
GR
GS
2 setlinecap
10.0 ML
N
239.355 247.668 M
241.903 250.497 L
244.45 253.326 L
246.997 256.155 L
249.544 258.984 L
252.091 261.813 L
254.638 264.642 L
257.185 267.47 L
259.732 270.299 L
262.279 273.128 L
264.827 275.957 L
267.374 278.786 L
269.921 281.615 L
272.468 284.444 L
275.015 287.272 L
277.562 290.101 L
280.109 292.93 L
282.656 295.759 L
285.203 298.588 L
287.751 301.417 L
290.298 304.246 L
292.845 307.074 L
295.392 309.903 L
297.939 312.732 L
300.486 315.561 L
303.033 318.39 L
305.58 321.219 L
308.128 324.048 L
310.675 326.876 L
313.222 329.705 L
315.769 332.534 L
S
GR
GS
2 setlinecap
10.0 ML
N
240.066 244.885 M
242.758 247.577 L
245.45 250.269 L
248.141 252.96 L
250.833 255.652 L
253.525 258.344 L
256.216 261.035 L
258.908 263.727 L
261.6 266.419 L
264.291 269.11 L
266.983 271.802 L
269.675 274.494 L
272.367 277.185 L
275.058 279.877 L
277.75 282.569 L
280.442 285.26 L
283.133 287.952 L
285.825 290.644 L
288.517 293.335 L
291.208 296.027 L
293.9 298.719 L
296.592 301.41 L
299.283 304.102 L
301.975 306.794 L
304.667 309.485 L
307.358 312.177 L
310.05 314.869 L
312.742 317.56 L
315.433 320.252 L
318.125 322.944 L
320.817 325.635 L
S
GR
GS
2 setlinecap
10.0 ML
N
242.85 244.174 M
245.678 246.721 L
248.507 249.268 L
251.336 251.816 L
254.165 254.363 L
256.994 256.91 L
259.823 259.457 L
262.652 262.004 L
265.48 264.551 L
268.309 267.098 L
271.138 269.645 L
273.967 272.193 L
276.796 274.74 L
279.625 277.287 L
282.454 279.834 L
285.282 282.381 L
288.111 284.928 L
290.94 287.475 L
293.769 290.022 L
296.598 292.569 L
299.427 295.117 L
302.256 297.664 L
305.084 300.211 L
307.913 302.758 L
310.742 305.305 L
313.571 307.852 L
316.4 310.399 L
319.229 312.946 L
322.058 315.493 L
324.886 318.041 L
327.715 320.588 L
S
GR
GS
2 setlinecap
10.0 ML
N
247.703 244.925 M
250.661 247.321 L
253.62 249.717 L
256.578 252.112 L
259.536 254.508 L
262.495 256.903 L
265.453 259.299 L
268.411 261.694 L
271.369 264.09 L
274.328 266.486 L
277.286 268.881 L
280.244 271.277 L
283.203 273.672 L
286.161 276.068 L
289.119 278.463 L
292.077 280.859 L
295.036 283.255 L
297.994 285.65 L
300.952 288.046 L
303.911 290.441 L
306.869 292.837 L
309.827 295.232 L
312.785 297.628 L
315.744 300.024 L
318.702 302.419 L
321.66 304.815 L
324.619 307.21 L
327.577 309.606 L
330.535 312.001 L
333.493 314.397 L
336.452 316.793 L
S
GR
GS
2 setlinecap
10.0 ML
N
253.96 246.147 M
257.04 248.385 L
260.12 250.622 L
263.199 252.859 L
266.279 255.097 L
269.358 257.334 L
272.438 259.572 L
275.518 261.809 L
278.597 264.047 L
281.677 266.284 L
284.756 268.522 L
287.836 270.759 L
290.916 272.997 L
293.995 275.234 L
297.075 277.472 L
300.155 279.709 L
303.234 281.947 L
306.314 284.184 L
309.393 286.421 L
312.473 288.659 L
315.553 290.896 L
318.632 293.134 L
321.712 295.371 L
324.791 297.609 L
327.871 299.846 L
330.951 302.084 L
334.03 304.321 L
337.11 306.559 L
340.189 308.796 L
343.269 311.034 L
346.349 313.271 L
S
GR
GS
2 setlinecap
10.0 ML
N
260.442 246.793 M
263.635 248.867 L
266.827 250.94 L
270.02 253.013 L
273.212 255.086 L
276.405 257.159 L
279.597 259.233 L
282.79 261.306 L
285.982 263.379 L
289.175 265.452 L
292.367 267.526 L
295.56 269.599 L
298.752 271.672 L
301.945 273.745 L
305.137 275.818 L
308.33 277.892 L
311.522 279.965 L
314.715 282.038 L
317.907 284.111 L
321.1 286.185 L
324.292 288.258 L
327.485 290.331 L
330.677 292.404 L
333.87 294.478 L
337.062 296.551 L
340.254 298.624 L
343.447 300.697 L
346.639 302.77 L
349.832 304.844 L
353.024 306.917 L
356.217 308.99 L
S
GR
GS
2 setlinecap
10.0 ML
N
265.78 246.08 M
269.077 247.983 L
272.374 249.886 L
275.67 251.789 L
278.967 253.693 L
282.263 255.596 L
285.56 257.499 L
288.857 259.403 L
292.153 261.306 L
295.45 263.209 L
298.747 265.113 L
302.043 267.016 L
305.34 268.919 L
308.636 270.822 L
311.933 272.726 L
315.23 274.629 L
318.526 276.532 L
321.823 278.436 L
325.119 280.339 L
328.416 282.242 L
331.713 284.146 L
335.009 286.049 L
338.306 287.952 L
341.603 289.855 L
344.899 291.759 L
348.196 293.662 L
351.492 295.565 L
354.789 297.469 L
358.086 299.372 L
361.382 301.275 L
364.679 303.179 L
S
GR
GS
2 setlinecap
10.0 ML
N
268.817 243.692 M
272.209 245.42 L
275.6 247.148 L
278.992 248.877 L
282.384 250.605 L
285.776 252.333 L
289.167 254.061 L
292.559 255.789 L
295.951 257.517 L
299.342 259.245 L
302.734 260.974 L
306.126 262.702 L
309.518 264.43 L
312.909 266.158 L
316.301 267.886 L
319.693 269.614 L
323.084 271.343 L
326.476 273.071 L
329.868 274.799 L
333.259 276.527 L
336.651 278.255 L
340.043 279.983 L
343.435 281.712 L
346.826 283.44 L
350.218 285.168 L
353.61 286.896 L
357.001 288.624 L
360.393 290.352 L
363.785 292.081 L
367.177 293.809 L
370.568 295.537 L
S
GR
GS
2 setlinecap
10.0 ML
N
268.964 239.832 M
272.441 241.38 L
275.919 242.929 L
279.396 244.477 L
282.874 246.025 L
286.351 247.573 L
289.829 249.122 L
293.306 250.67 L
296.784 252.218 L
300.261 253.767 L
303.739 255.315 L
307.216 256.863 L
310.694 258.411 L
314.171 259.96 L
317.649 261.508 L
321.126 263.056 L
324.604 264.605 L
328.081 266.153 L
331.559 267.701 L
335.036 269.249 L
338.514 270.798 L
341.991 272.346 L
345.469 273.894 L
348.946 275.443 L
352.424 276.991 L
355.901 278.539 L
359.379 280.087 L
362.856 281.636 L
366.334 283.184 L
369.811 284.732 L
373.289 286.281 L
S
GR
GS
2 setlinecap
10.0 ML
N
266.404 235.094 M
269.957 236.458 L
273.511 237.822 L
277.065 239.186 L
280.619 240.551 L
284.172 241.915 L
287.726 243.279 L
291.28 244.643 L
294.834 246.007 L
298.387 247.371 L
301.941 248.735 L
305.495 250.1 L
309.049 251.464 L
312.603 252.828 L
316.156 254.192 L
319.71 255.556 L
323.264 256.92 L
326.818 258.285 L
330.371 259.649 L
333.925 261.013 L
337.479 262.377 L
341.033 263.741 L
344.586 265.105 L
348.14 266.47 L
351.694 267.834 L
355.248 269.198 L
358.802 270.562 L
362.355 271.926 L
365.909 273.29 L
369.463 274.655 L
373.017 276.019 L
S
GR
GS
2 setlinecap
10.0 ML
N
262.071 230.23 M
265.691 231.406 L
269.311 232.582 L
272.932 233.759 L
276.552 234.935 L
280.172 236.111 L
283.792 237.288 L
287.413 238.464 L
291.033 239.64 L
294.653 240.816 L
298.274 241.993 L
301.894 243.169 L
305.514 244.345 L
309.135 245.522 L
312.755 246.698 L
316.375 247.874 L
319.995 249.051 L
323.616 250.227 L
327.236 251.403 L
330.856 252.579 L
334.477 253.756 L
338.097 254.932 L
341.717 256.108 L
345.337 257.285 L
348.958 258.461 L
352.578 259.637 L
356.198 260.814 L
359.819 261.99 L
363.439 263.166 L
367.059 264.343 L
370.68 265.519 L
S
GR
GS
2 setlinecap
10.0 ML
N
257.404 225.886 M
261.081 226.871 L
264.758 227.856 L
268.435 228.841 L
272.112 229.827 L
275.789 230.812 L
279.466 231.797 L
283.143 232.782 L
286.82 233.767 L
290.496 234.753 L
294.173 235.738 L
297.85 236.723 L
301.527 237.708 L
305.204 238.693 L
308.881 239.679 L
312.558 240.664 L
316.235 241.649 L
319.912 242.634 L
323.589 243.62 L
327.265 244.605 L
330.942 245.59 L
334.619 246.575 L
338.296 247.56 L
341.973 248.546 L
345.65 249.531 L
349.327 250.516 L
353.004 251.501 L
356.681 252.487 L
360.357 253.472 L
364.034 254.457 L
367.711 255.442 L
S
GR
GS
2 setlinecap
10.0 ML
N
253.944 222.4 M
257.667 223.192 L
261.391 223.983 L
265.114 224.775 L
268.838 225.566 L
272.561 226.358 L
276.284 227.149 L
280.008 227.941 L
283.731 228.732 L
287.455 229.523 L
291.178 230.315 L
294.901 231.106 L
298.625 231.898 L
302.348 232.689 L
306.072 233.481 L
309.795 234.272 L
313.519 235.063 L
317.242 235.855 L
320.965 236.646 L
324.689 237.438 L
328.412 238.229 L
332.136 239.021 L
335.859 239.812 L
339.583 240.604 L
343.306 241.395 L
347.029 242.186 L
350.753 242.978 L
354.476 243.769 L
358.2 244.561 L
361.923 245.352 L
365.646 246.144 L
S
GR
GS
2 setlinecap
10.0 ML
N
252.883 219.731 M
256.643 220.326 L
260.403 220.922 L
264.162 221.517 L
267.922 222.113 L
271.682 222.708 L
275.442 223.304 L
279.201 223.899 L
282.961 224.495 L
286.721 225.09 L
290.481 225.686 L
294.24 226.281 L
298 226.877 L
301.76 227.472 L
305.519 228.068 L
309.279 228.663 L
313.039 229.259 L
316.799 229.854 L
320.558 230.45 L
324.318 231.045 L
328.078 231.641 L
331.838 232.236 L
335.597 232.832 L
339.357 233.427 L
343.117 234.023 L
346.877 234.618 L
350.636 235.214 L
354.396 235.809 L
358.156 236.404 L
361.916 237 L
365.675 237.595 L
S
GR
GS
2 setlinecap
10.0 ML
N
254.717 217.52 M
258.503 217.918 L
262.288 218.316 L
266.074 218.714 L
269.86 219.111 L
273.646 219.509 L
277.431 219.907 L
281.217 220.305 L
285.003 220.703 L
288.789 221.101 L
292.574 221.499 L
296.36 221.897 L
300.146 222.295 L
303.932 222.693 L
307.717 223.09 L
311.503 223.488 L
315.289 223.886 L
319.075 224.284 L
322.86 224.682 L
326.646 225.08 L
330.432 225.478 L
334.218 225.876 L
338.003 226.274 L
341.789 226.671 L
345.575 227.069 L
349.361 227.467 L
353.146 227.865 L
356.932 228.263 L
360.718 228.661 L
364.504 229.059 L
368.289 229.457 L
S
GR
GS
2 setlinecap
10.0 ML
N
259.085 215.275 M
262.886 215.474 L
266.688 215.673 L
270.489 215.872 L
274.291 216.072 L
278.092 216.271 L
281.893 216.47 L
285.695 216.669 L
289.496 216.868 L
293.297 217.068 L
297.099 217.267 L
300.9 217.466 L
304.702 217.665 L
308.503 217.865 L
312.304 218.064 L
316.106 218.263 L
319.907 218.462 L
323.709 218.661 L
327.51 218.861 L
331.311 219.06 L
335.113 219.259 L
338.914 219.458 L
342.716 219.658 L
346.517 219.857 L
350.318 220.056 L
354.12 220.255 L
357.921 220.454 L
361.722 220.654 L
365.524 220.853 L
369.325 221.052 L
373.127 221.251 L
S
GR
GS
2 setlinecap
10.0 ML
N
264.865 212.585 M
268.672 212.585 L
272.479 212.585 L
276.285 212.585 L
280.092 212.585 L
283.898 212.585 L
287.705 212.585 L
291.512 212.585 L
295.318 212.585 L
299.125 212.585 L
302.931 212.585 L
306.738 212.585 L
310.545 212.585 L
314.351 212.585 L
318.158 212.585 L
321.964 212.585 L
325.771 212.585 L
329.578 212.585 L
333.384 212.585 L
337.191 212.585 L
340.997 212.585 L
344.804 212.585 L
348.611 212.585 L
352.417 212.585 L
356.224 212.585 L
360.03 212.585 L
363.837 212.585 L
367.644 212.585 L
371.45 212.585 L
375.257 212.585 L
379.063 212.585 L
S
GR
GS
2 setlinecap
10.0 ML
N
270.489 209.298 M
274.291 209.099 L
278.092 208.9 L
281.893 208.7 L
285.695 208.501 L
289.496 208.302 L
293.297 208.103 L
297.099 207.903 L
300.9 207.704 L
304.702 207.505 L
308.503 207.306 L
312.304 207.107 L
316.106 206.907 L
319.907 206.708 L
323.709 206.509 L
327.51 206.31 L
331.311 206.11 L
335.113 205.911 L
338.914 205.712 L
342.716 205.513 L
346.517 205.314 L
350.318 205.114 L
354.12 204.915 L
357.921 204.716 L
361.722 204.517 L
365.524 204.317 L
369.325 204.118 L
373.127 203.919 L
376.928 203.72 L
380.729 203.521 L
384.531 203.321 L
S
GR
GS
2 setlinecap
10.0 ML
N
274.388 205.583 M
278.174 205.185 L
281.96 204.787 L
285.745 204.389 L
289.531 203.991 L
293.317 203.593 L
297.103 203.195 L
300.888 202.798 L
304.674 202.4 L
308.46 202.002 L
312.246 201.604 L
316.031 201.206 L
319.817 200.808 L
323.603 200.41 L
327.389 200.012 L
331.174 199.614 L
334.96 199.217 L
338.746 198.819 L
342.532 198.421 L
346.317 198.023 L
350.103 197.625 L
353.889 197.227 L
357.675 196.829 L
361.46 196.431 L
365.246 196.033 L
369.032 195.635 L
372.818 195.238 L
376.603 194.84 L
380.389 194.442 L
384.175 194.044 L
387.961 193.646 L
S
GR
GS
2 setlinecap
10.0 ML
N
275.442 201.866 M
279.201 201.271 L
282.961 200.675 L
286.721 200.08 L
290.481 199.484 L
294.24 198.889 L
298 198.294 L
301.76 197.698 L
305.519 197.103 L
309.279 196.507 L
313.039 195.912 L
316.799 195.316 L
320.558 194.721 L
324.318 194.125 L
328.078 193.53 L
331.838 192.934 L
335.597 192.339 L
339.357 191.743 L
343.117 191.148 L
346.877 190.552 L
350.636 189.957 L
354.396 189.361 L
358.156 188.766 L
361.916 188.17 L
365.675 187.575 L
369.435 186.979 L
373.195 186.384 L
376.954 185.788 L
380.714 185.193 L
384.474 184.597 L
388.234 184.002 L
S
GR
GS
2 setlinecap
10.0 ML
N
273.291 198.657 M
277.015 197.866 L
280.738 197.074 L
284.462 196.283 L
288.185 195.492 L
291.908 194.7 L
295.632 193.909 L
299.355 193.117 L
303.079 192.326 L
306.802 191.534 L
310.526 190.743 L
314.249 189.952 L
317.972 189.16 L
321.696 188.369 L
325.419 187.577 L
329.143 186.786 L
332.866 185.994 L
336.589 185.203 L
340.313 184.411 L
344.036 183.62 L
347.76 182.829 L
351.483 182.037 L
355.207 181.246 L
358.93 180.454 L
362.653 179.663 L
366.377 178.871 L
370.1 178.08 L
373.824 177.289 L
377.547 176.497 L
381.27 175.706 L
384.994 174.914 L
S
GR
GS
2 setlinecap
10.0 ML
N
268.435 196.329 M
272.112 195.344 L
275.789 194.359 L
279.466 193.373 L
283.143 192.388 L
286.82 191.403 L
290.496 190.418 L
294.173 189.432 L
297.85 188.447 L
301.527 187.462 L
305.204 186.477 L
308.881 185.492 L
312.558 184.506 L
316.235 183.521 L
319.912 182.536 L
323.589 181.551 L
327.265 180.565 L
330.942 179.58 L
334.619 178.595 L
338.296 177.61 L
341.973 176.625 L
345.65 175.639 L
349.327 174.654 L
353.004 173.669 L
356.681 172.684 L
360.357 171.698 L
364.034 170.713 L
367.711 169.728 L
371.388 168.743 L
375.065 167.758 L
378.742 166.772 L
S
GR
GS
2 setlinecap
10.0 ML
N
262.071 194.941 M
265.691 193.764 L
269.311 192.588 L
272.932 191.412 L
276.552 190.235 L
280.172 189.059 L
283.792 187.883 L
287.413 186.706 L
291.033 185.53 L
294.653 184.354 L
298.274 183.178 L
301.894 182.001 L
305.514 180.825 L
309.135 179.649 L
312.755 178.472 L
316.375 177.296 L
319.995 176.12 L
323.616 174.943 L
327.236 173.767 L
330.856 172.591 L
334.477 171.414 L
338.097 170.238 L
341.717 169.062 L
345.337 167.886 L
348.958 166.709 L
352.578 165.533 L
356.198 164.357 L
359.819 163.18 L
363.439 162.004 L
367.059 160.828 L
370.68 159.651 L
S
GR
GS
2 setlinecap
10.0 ML
N
255.742 194.169 M
259.296 192.805 L
262.85 191.441 L
266.404 190.076 L
269.957 188.712 L
273.511 187.348 L
277.065 185.984 L
280.619 184.62 L
284.172 183.256 L
287.726 181.891 L
291.28 180.527 L
294.834 179.163 L
298.387 177.799 L
301.941 176.435 L
305.495 175.071 L
309.049 173.706 L
312.603 172.342 L
316.156 170.978 L
319.71 169.614 L
323.264 168.25 L
326.818 166.886 L
330.371 165.521 L
333.925 164.157 L
337.479 162.793 L
341.033 161.429 L
344.586 160.065 L
348.14 158.701 L
351.694 157.336 L
355.248 155.972 L
358.802 154.608 L
362.355 153.244 L
S
GR
GS
2 setlinecap
10.0 ML
N
250.894 193.383 M
254.372 191.835 L
257.849 190.287 L
261.327 188.739 L
264.804 187.19 L
268.282 185.642 L
271.759 184.094 L
275.237 182.545 L
278.714 180.997 L
282.192 179.449 L
285.669 177.901 L
289.147 176.352 L
292.624 174.804 L
296.102 173.256 L
299.579 171.707 L
303.057 170.159 L
306.534 168.611 L
310.012 167.063 L
313.489 165.514 L
316.967 163.966 L
320.444 162.418 L
323.922 160.869 L
327.399 159.321 L
330.877 157.773 L
334.354 156.225 L
337.832 154.676 L
341.309 153.128 L
344.787 151.58 L
348.264 150.031 L
351.742 148.483 L
355.219 146.935 L
S
GR
GS
2 setlinecap
10.0 ML
N
248.467 191.847 M
251.859 190.119 L
255.25 188.391 L
258.642 186.663 L
262.034 184.935 L
265.425 183.206 L
268.817 181.478 L
272.209 179.75 L
275.6 178.022 L
278.992 176.294 L
282.384 174.566 L
285.776 172.837 L
289.167 171.109 L
292.559 169.381 L
295.951 167.653 L
299.342 165.925 L
302.734 164.197 L
306.126 162.468 L
309.518 160.74 L
312.909 159.012 L
316.301 157.284 L
319.693 155.556 L
323.084 153.828 L
326.476 152.099 L
329.868 150.371 L
333.259 148.643 L
336.651 146.915 L
340.043 145.187 L
343.435 143.459 L
346.826 141.731 L
350.218 140.002 L
S
GR
GS
2 setlinecap
10.0 ML
N
248.651 188.981 M
251.947 187.077 L
255.244 185.174 L
258.541 183.271 L
261.837 181.367 L
265.134 179.464 L
268.43 177.561 L
271.727 175.657 L
275.024 173.754 L
278.32 171.851 L
281.617 169.948 L
284.913 168.044 L
288.21 166.141 L
291.507 164.238 L
294.803 162.334 L
298.1 160.431 L
301.397 158.528 L
304.693 156.624 L
307.99 154.721 L
311.286 152.818 L
314.583 150.915 L
317.88 149.011 L
321.176 147.108 L
324.473 145.205 L
327.769 143.301 L
331.066 141.398 L
334.363 139.495 L
337.659 137.591 L
340.956 135.688 L
344.253 133.785 L
347.549 131.881 L
S
GR
GS
2 setlinecap
10.0 ML
N
250.865 184.597 M
254.057 182.523 L
257.25 180.45 L
260.442 178.377 L
263.635 176.304 L
266.827 174.23 L
270.02 172.157 L
273.212 170.084 L
276.405 168.011 L
279.597 165.938 L
282.79 163.864 L
285.982 161.791 L
289.175 159.718 L
292.367 157.645 L
295.56 155.571 L
298.752 153.498 L
301.945 151.425 L
305.137 149.352 L
308.33 147.279 L
311.522 145.205 L
314.715 143.132 L
317.907 141.059 L
321.1 138.986 L
324.292 136.912 L
327.485 134.839 L
330.677 132.766 L
333.87 130.693 L
337.062 128.62 L
340.254 126.546 L
343.447 124.473 L
346.639 122.4 L
S
GR
GS
2 setlinecap
10.0 ML
N
253.96 179.023 M
257.04 176.786 L
260.12 174.548 L
263.199 172.311 L
266.279 170.073 L
269.358 167.836 L
272.438 165.598 L
275.518 163.361 L
278.597 161.123 L
281.677 158.886 L
284.756 156.648 L
287.836 154.411 L
290.916 152.174 L
293.995 149.936 L
297.075 147.699 L
300.155 145.461 L
303.234 143.224 L
306.314 140.986 L
309.393 138.749 L
312.473 136.511 L
315.553 134.274 L
318.632 132.036 L
321.712 129.799 L
324.791 127.561 L
327.871 125.324 L
330.951 123.087 L
334.03 120.849 L
337.11 118.612 L
340.189 116.374 L
343.269 114.137 L
346.349 111.899 L
S
GR
GS
2 setlinecap
10.0 ML
N
256.578 173.058 M
259.536 170.663 L
262.495 168.267 L
265.453 165.871 L
268.411 163.476 L
271.369 161.08 L
274.328 158.685 L
277.286 156.289 L
280.244 153.894 L
283.203 151.498 L
286.161 149.102 L
289.119 146.707 L
292.077 144.311 L
295.036 141.916 L
297.994 139.52 L
300.952 137.125 L
303.911 134.729 L
306.869 132.333 L
309.827 129.938 L
312.785 127.542 L
315.744 125.147 L
318.702 122.751 L
321.66 120.356 L
324.619 117.96 L
327.577 115.564 L
330.535 113.169 L
333.493 110.773 L
336.452 108.378 L
339.41 105.982 L
342.368 103.587 L
345.327 101.191 L
S
GR
GS
2 setlinecap
10.0 ML
N
257.549 167.761 M
260.378 165.214 L
263.206 162.667 L
266.035 160.119 L
268.864 157.572 L
271.693 155.025 L
274.522 152.478 L
277.351 149.931 L
280.18 147.384 L
283.008 144.837 L
285.837 142.29 L
288.666 139.743 L
291.495 137.195 L
294.324 134.648 L
297.153 132.101 L
299.982 129.554 L
302.81 127.007 L
305.639 124.46 L
308.468 121.913 L
311.297 119.366 L
314.126 116.819 L
316.955 114.271 L
319.784 111.724 L
322.612 109.177 L
325.441 106.63 L
328.27 104.083 L
331.099 101.536 L
333.928 98.989 L
336.757 96.442 L
339.586 93.894 L
342.414 91.347 L
S
GR
GS
2 setlinecap
10.0 ML
N
256.216 164.135 M
258.908 161.443 L
261.6 158.752 L
264.291 156.06 L
266.983 153.368 L
269.675 150.677 L
272.367 147.985 L
275.058 145.293 L
277.75 142.602 L
280.442 139.91 L
283.133 137.218 L
285.825 134.527 L
288.517 131.835 L
291.208 129.143 L
293.9 126.452 L
296.592 123.76 L
299.283 121.068 L
301.975 118.377 L
304.667 115.685 L
307.358 112.993 L
310.05 110.301 L
312.742 107.61 L
315.433 104.918 L
318.125 102.226 L
320.817 99.535 L
323.508 96.843 L
326.2 94.151 L
328.892 91.46 L
331.583 88.768 L
334.275 86.076 L
336.967 83.385 L
S
GR
GS
2 setlinecap
10.0 ML
N
252.591 162.803 M
255.138 159.974 L
257.685 157.145 L
260.232 154.316 L
262.779 151.487 L
265.326 148.658 L
267.873 145.83 L
270.42 143.001 L
272.968 140.172 L
275.515 137.343 L
278.062 134.514 L
280.609 131.685 L
283.156 128.856 L
285.703 126.028 L
288.25 123.199 L
290.797 120.37 L
293.344 117.541 L
295.892 114.712 L
298.439 111.883 L
300.986 109.054 L
303.533 106.226 L
306.08 103.397 L
308.627 100.568 L
311.174 97.739 L
313.721 94.91 L
316.268 92.081 L
318.816 89.252 L
321.363 86.424 L
323.91 83.595 L
326.457 80.766 L
329.004 77.937 L
S
GR
GS
2 setlinecap
10.0 ML
N
247.293 163.773 M
249.689 160.815 L
252.084 157.857 L
254.48 154.899 L
256.876 151.94 L
259.271 148.982 L
261.667 146.024 L
264.062 143.065 L
266.458 140.107 L
268.853 137.149 L
271.249 134.191 L
273.645 131.232 L
276.04 128.274 L
278.436 125.316 L
280.831 122.357 L
283.227 119.399 L
285.622 116.441 L
288.018 113.483 L
290.414 110.524 L
292.809 107.566 L
295.205 104.608 L
297.6 101.649 L
299.996 98.691 L
302.391 95.733 L
304.787 92.775 L
307.183 89.816 L
309.578 86.858 L
311.974 83.9 L
314.369 80.941 L
316.765 77.983 L
319.16 75.025 L
S
GR
GS
2 setlinecap
10.0 ML
N
241.328 166.391 M
243.566 163.311 L
245.803 160.232 L
248.041 157.152 L
250.278 154.073 L
252.516 150.993 L
254.753 147.913 L
256.991 144.834 L
259.228 141.754 L
261.465 138.675 L
263.703 135.595 L
265.94 132.515 L
268.178 129.436 L
270.415 126.356 L
272.653 123.277 L
274.89 120.197 L
277.128 117.117 L
279.365 114.038 L
281.603 110.958 L
283.84 107.879 L
286.078 104.799 L
288.315 101.719 L
290.553 98.64 L
292.79 95.56 L
295.027 92.48 L
297.265 89.401 L
299.502 86.321 L
301.74 83.242 L
303.977 80.162 L
306.215 77.082 L
308.452 74.003 L
S
GR
GS
2 setlinecap
10.0 ML
N
235.755 169.487 M
237.828 166.294 L
239.901 163.102 L
241.975 159.909 L
244.048 156.717 L
246.121 153.524 L
248.194 150.332 L
250.267 147.139 L
252.341 143.947 L
254.414 140.754 L
256.487 137.562 L
258.56 134.369 L
260.634 131.177 L
262.707 127.984 L
264.78 124.792 L
266.853 121.599 L
268.926 118.407 L
271 115.214 L
273.073 112.022 L
275.146 108.829 L
277.219 105.637 L
279.293 102.444 L
281.366 99.252 L
283.439 96.059 L
285.512 92.867 L
287.585 89.674 L
289.659 86.482 L
291.732 83.289 L
293.805 80.097 L
295.878 76.904 L
297.952 73.712 L
S
GR
GS
2 setlinecap
10.0 ML
N
231.371 171.701 M
233.274 168.404 L
235.178 165.108 L
237.081 161.811 L
238.984 158.514 L
240.887 155.218 L
242.791 151.921 L
244.694 148.624 L
246.597 145.328 L
248.501 142.031 L
250.404 138.735 L
252.307 135.438 L
254.211 132.141 L
256.114 128.845 L
258.017 125.548 L
259.92 122.252 L
261.824 118.955 L
263.727 115.658 L
265.63 112.362 L
267.534 109.065 L
269.437 105.768 L
271.34 102.472 L
273.244 99.175 L
275.147 95.879 L
277.05 92.582 L
278.953 89.285 L
280.857 85.989 L
282.76 82.692 L
284.663 79.396 L
286.567 76.099 L
288.47 72.802 L
S
GR
GS
2 setlinecap
10.0 ML
N
228.504 171.885 M
230.232 168.493 L
231.961 165.101 L
233.689 161.71 L
235.417 158.318 L
237.145 154.926 L
238.873 151.534 L
240.601 148.143 L
242.33 144.751 L
244.058 141.359 L
245.786 137.968 L
247.514 134.576 L
249.242 131.184 L
250.97 127.792 L
252.699 124.401 L
254.427 121.009 L
256.155 117.617 L
257.883 114.226 L
259.611 110.834 L
261.339 107.442 L
263.067 104.05 L
264.796 100.659 L
266.524 97.267 L
268.252 93.875 L
269.98 90.484 L
271.708 87.092 L
273.436 83.7 L
275.165 80.309 L
276.893 76.917 L
278.621 73.525 L
280.349 70.133 L
S
GR
GS
2 setlinecap
10.0 ML
N
226.968 169.457 M
228.516 165.98 L
230.065 162.502 L
231.613 159.025 L
233.161 155.547 L
234.709 152.07 L
236.258 148.592 L
237.806 145.115 L
239.354 141.637 L
240.903 138.16 L
242.451 134.682 L
243.999 131.205 L
245.547 127.727 L
247.096 124.25 L
248.644 120.772 L
250.192 117.295 L
251.741 113.817 L
253.289 110.34 L
254.837 106.862 L
256.385 103.385 L
257.934 99.907 L
259.482 96.43 L
261.03 92.952 L
262.579 89.475 L
264.127 85.997 L
265.675 82.52 L
267.223 79.042 L
268.772 75.565 L
270.32 72.087 L
271.868 68.61 L
273.417 65.132 L
S
GR
GS
2 setlinecap
10.0 ML
N
226.183 164.609 M
227.547 161.055 L
228.911 157.502 L
230.275 153.948 L
231.639 150.394 L
233.003 146.84 L
234.368 143.287 L
235.732 139.733 L
237.096 136.179 L
238.46 132.625 L
239.824 129.072 L
241.188 125.518 L
242.553 121.964 L
243.917 118.41 L
245.281 114.856 L
246.645 111.303 L
248.009 107.749 L
249.373 104.195 L
250.737 100.641 L
252.102 97.088 L
253.466 93.534 L
254.83 89.98 L
256.194 86.426 L
257.558 82.873 L
258.922 79.319 L
260.287 75.765 L
261.651 72.211 L
263.015 68.657 L
264.379 65.104 L
265.743 61.55 L
267.107 57.996 L
S
GR
GS
2 setlinecap
10.0 ML
N
225.411 158.281 M
226.587 154.66 L
227.763 151.04 L
228.94 147.42 L
230.116 143.8 L
231.292 140.179 L
232.469 136.559 L
233.645 132.939 L
234.821 129.318 L
235.998 125.698 L
237.174 122.078 L
238.35 118.457 L
239.527 114.837 L
240.703 111.217 L
241.879 107.597 L
243.055 103.976 L
244.232 100.356 L
245.408 96.736 L
246.584 93.115 L
247.761 89.495 L
248.937 85.875 L
250.113 82.255 L
251.29 78.634 L
252.466 75.014 L
253.642 71.394 L
254.818 67.773 L
255.995 64.153 L
257.171 60.533 L
258.347 56.912 L
259.524 53.292 L
260.7 49.672 L
S
GR
GS
2 setlinecap
10.0 ML
N
224.022 151.916 M
225.008 148.239 L
225.993 144.563 L
226.978 140.886 L
227.963 137.209 L
228.949 133.532 L
229.934 129.855 L
230.919 126.178 L
231.904 122.501 L
232.889 118.824 L
233.875 115.147 L
234.86 111.47 L
235.845 107.794 L
236.83 104.117 L
237.816 100.44 L
238.801 96.763 L
239.786 93.086 L
240.771 89.409 L
241.756 85.732 L
242.742 82.055 L
243.727 78.378 L
244.712 74.702 L
245.697 71.025 L
246.683 67.348 L
247.668 63.671 L
248.653 59.994 L
249.638 56.317 L
250.623 52.64 L
251.609 48.963 L
252.594 45.286 L
253.579 41.609 L
S
GR
GS
2 setlinecap
10.0 ML
N
221.694 147.06 M
222.486 143.337 L
223.277 139.613 L
224.068 135.89 L
224.86 132.166 L
225.651 128.443 L
226.443 124.72 L
227.234 120.996 L
228.026 117.273 L
228.817 113.549 L
229.608 109.826 L
230.4 106.102 L
231.191 102.379 L
231.983 98.656 L
232.774 94.932 L
233.566 91.209 L
234.357 87.485 L
235.149 83.762 L
235.94 80.039 L
236.731 76.315 L
237.523 72.592 L
238.314 68.868 L
239.106 65.145 L
239.897 61.421 L
240.689 57.698 L
241.48 53.975 L
242.271 50.251 L
243.063 46.528 L
243.854 42.804 L
244.646 39.081 L
245.437 35.358 L
S
GR
GS
2 setlinecap
10.0 ML
N
218.485 144.91 M
219.081 141.15 L
219.676 137.39 L
220.271 133.631 L
220.867 129.871 L
221.462 126.111 L
222.058 122.351 L
222.653 118.592 L
223.249 114.832 L
223.844 111.072 L
224.44 107.312 L
225.035 103.553 L
225.631 99.793 L
226.226 96.033 L
226.822 92.274 L
227.417 88.514 L
228.013 84.754 L
228.608 80.994 L
229.204 77.235 L
229.799 73.475 L
230.395 69.715 L
230.99 65.955 L
231.586 62.196 L
232.181 58.436 L
232.777 54.676 L
233.372 50.916 L
233.968 47.157 L
234.563 43.397 L
235.159 39.637 L
235.754 35.877 L
236.35 32.118 L
S
GR
GS
2 setlinecap
10.0 ML
N
214.769 145.963 M
215.166 142.177 L
215.564 138.392 L
215.962 134.606 L
216.36 130.82 L
216.758 127.034 L
217.156 123.249 L
217.554 119.463 L
217.952 115.677 L
218.35 111.891 L
218.748 108.106 L
219.145 104.32 L
219.543 100.534 L
219.941 96.748 L
220.339 92.963 L
220.737 89.177 L
221.135 85.391 L
221.533 81.605 L
221.931 77.82 L
222.329 74.034 L
222.727 70.248 L
223.124 66.462 L
223.522 62.677 L
223.92 58.891 L
224.318 55.105 L
224.716 51.319 L
225.114 47.534 L
225.512 43.748 L
225.91 39.962 L
226.308 36.176 L
226.706 32.391 L
S
GR
GS
2 setlinecap
10.0 ML
N
211.053 149.862 M
211.253 146.061 L
211.452 142.259 L
211.651 138.458 L
211.85 134.657 L
212.05 130.855 L
212.249 127.054 L
212.448 123.253 L
212.647 119.451 L
212.846 115.65 L
213.046 111.848 L
213.245 108.047 L
213.444 104.246 L
213.643 100.444 L
213.843 96.643 L
214.042 92.841 L
214.241 89.04 L
214.44 85.239 L
214.639 81.437 L
214.839 77.636 L
215.038 73.835 L
215.237 70.033 L
215.436 66.232 L
215.636 62.43 L
215.835 58.629 L
216.034 54.828 L
216.233 51.026 L
216.432 47.225 L
216.632 43.423 L
216.831 39.622 L
217.03 35.821 L
S
GR
GS
2 setlinecap
10.0 ML
N
207.766 155.486 M
207.766 151.679 L
207.766 147.873 L
207.766 144.066 L
207.766 140.26 L
207.766 136.453 L
207.766 132.646 L
207.766 128.84 L
207.766 125.033 L
207.766 121.227 L
207.766 117.42 L
207.766 113.613 L
207.766 109.807 L
207.766 106 L
207.766 102.194 L
207.766 98.387 L
207.766 94.58 L
207.766 90.774 L
207.766 86.967 L
207.766 83.161 L
207.766 79.354 L
207.766 75.547 L
207.766 71.741 L
207.766 67.934 L
207.766 64.128 L
207.766 60.321 L
207.766 56.514 L
207.766 52.708 L
207.766 48.901 L
207.766 45.095 L
207.766 41.288 L
S
GR
%%Trailer
%%BoundingBox: 62 34 521 400
%%Pages: 1
%%EOF
